EESchema Schematic File Version 4
EELAYER 30 0
EELAYER END
$Descr A4 11693 8268
encoding utf-8
Sheet 2 2
Title "pb_esp32_cam"
Date "2020-11-24"
Rev "1.0"
Comp "Plombox"
Comment1 "L. H. Arnaldi"
Comment2 "Working Package 2"
Comment3 ""
Comment4 ""
$EndDescr
Wire Wire Line
	9190 4905 9340 4905
Connection ~ 9340 4905
Wire Wire Line
	9340 4905 9340 4705
Connection ~ 9675 4905
Wire Wire Line
	9675 4270 9675 4905
Wire Wire Line
	9675 5340 9675 5280
Wire Wire Line
	8190 5205 7930 5205
NoConn ~ 9190 5205
Text GLabel 1350 5175 0    60   Input ~ 0
USB5V
Text GLabel 5010 4975 0    60   Input ~ 0
USB5V
Text GLabel 4745 4675 0    60   Input ~ 0
LIPO_BAT
Text Notes 8335 5485 0    60   ~ 0
POWER_SENSORS
Wire Wire Line
	9340 4905 9675 4905
Wire Wire Line
	9675 4905 9675 4980
Wire Wire Line
	5570 4675 5725 4675
$Comp
L OPL_Integrated_Circuit:INTERFACE-FT232RL_SSOP28_ U4
U 1 1 60866EFD
P 3895 2150
F 0 "U4" H 3895 3354 45  0000 C CNN
F 1 "INTERFACE-FT232RL_SSOP28_" H 3895 3270 45  0001 C CNN
F 2 "OPL_Integrated_Circuit:SSOP28-0.65-10.2X5.2MM" H 3895 2150 50  0001 C CNN
F 3 "" H 3895 2150 50  0001 C CNN
F 4 "FT232RL" H 3925 2300 20  0001 C CNN "MPN"
F 5 "310070022" H 3925 2300 20  0001 C CNN "SKU"
	1    3895 2150
	1    0    0    -1  
$EndComp
NoConn ~ 3345 1700
NoConn ~ 3345 1800
$Comp
L OPL_Resistor:SMD-RES-0R-5%-1_10W_0603_ R2
U 1 1 60898113
P 1925 1200
F 0 "R2" H 1925 1374 45  0000 C CNN
F 1 "SMD-RES-0R-5%-1_10W_0603_" H 1925 1290 45  0001 C CNN
F 2 "Resistor_SMD:R_0603_1608Metric" H 1925 1200 40  0001 C CNN
F 3 "" H 1925 1200 40  0001 C CNN
F 4 "RC0603JR-070RL" H 1955 1350 20  0001 C CNN "MPN"
F 5 "301010292" H 1955 1350 20  0001 C CNN "SKU"
	1    1925 1200
	1    0    0    -1  
$EndComp
Wire Wire Line
	1775 1200 1675 1200
NoConn ~ 4445 1900
NoConn ~ 4445 2500
NoConn ~ 4445 2400
NoConn ~ 4445 2300
Wire Wire Line
	1675 1600 1765 1600
Wire Wire Line
	1765 1600 1765 1685
Wire Wire Line
	2075 1200 2275 1200
Wire Wire Line
	3345 1200 3345 1300
Connection ~ 3345 1200
Text GLabel 3370 870  2    50   Input ~ 0
USB5V
Wire Wire Line
	3345 1200 3345 870 
Wire Wire Line
	3345 870  3370 870 
Wire Wire Line
	3345 2300 2950 2300
$Comp
L OPL_Capacitor:CERAMIC-100NF-50V-10%-X7R_0805_ C7
U 1 1 60892908
P 2950 2450
F 0 "C7" V 2908 2518 45  0000 L CNN
F 1 "CERAMIC-100NF-50V-10%-X7R_0805_" V 2690 1675 45  0001 L CNN
F 2 "Capacitor_SMD:C_0805_2012Metric" H 2950 2450 50  0001 C CNN
F 3 "" H 2950 2450 50  0001 C CNN
F 4 "CC0805KRX7R9BB104" H 2980 2600 20  0001 C CNN "MPN"
F 5 "302010165" H 2980 2600 20  0001 C CNN "SKU"
	1    2950 2450
	0    1    1    0   
$EndComp
NoConn ~ 1675 1500
Text GLabel 3310 2500 0    50   Input ~ 0
USBDP
Text GLabel 3310 2600 0    50   Input ~ 0
USBDM
Wire Wire Line
	3345 2500 3310 2500
Wire Wire Line
	3345 2600 3310 2600
Text GLabel 1745 1300 2    50   Input ~ 0
USBDM
Wire Wire Line
	1745 1300 1675 1300
Text GLabel 1745 1400 2    50   Input ~ 0
USBDP
Wire Wire Line
	1745 1400 1675 1400
$Comp
L OPL_Capacitor:CERAMIC-100NF-50V-10%-X7R_0805_ C5
U 1 1 608AB86D
P 2275 1535
F 0 "C5" V 2275 1603 45  0000 L CNN
F 1 "CERAMIC-100NF-50V-10%-X7R_0805_" V 2317 1603 45  0001 L CNN
F 2 "Capacitor_SMD:C_0805_2012Metric" H 2275 1535 50  0001 C CNN
F 3 "" H 2275 1535 50  0001 C CNN
F 4 "CC0805KRX7R9BB104" H 2305 1685 20  0001 C CNN "MPN"
F 5 "302010165" H 2305 1685 20  0001 C CNN "SKU"
	1    2275 1535
	0    1    1    0   
$EndComp
Wire Wire Line
	2275 1385 2275 1200
Connection ~ 2275 1200
Wire Wire Line
	2275 1200 2585 1200
Wire Wire Line
	2275 1685 1765 1685
Connection ~ 1765 1685
Wire Wire Line
	3345 2800 2950 2800
Wire Wire Line
	2945 2800 2945 2990
Wire Wire Line
	2950 2600 2950 2800
Connection ~ 2950 2800
Wire Wire Line
	2950 2800 2945 2800
$Comp
L OPL_Resistor:SMD-RES-1K-5%-1_8W_0805_ R9
U 1 1 608C0443
P 6140 2895
F 0 "R9" V 6140 2943 45  0000 L CNN
F 1 "SMD-RES-1K-5%-1_8W_0805_" V 6182 2943 45  0001 L CNN
F 2 "Resistor_SMD:R_0805_2012Metric" H 6140 2895 40  0001 C CNN
F 3 "" H 6140 2895 40  0001 C CNN
F 4 "RC0805JR-071KL" H 6170 3045 20  0001 C CNN "MPN"
F 5 "301010311" H 6170 3045 20  0001 C CNN "SKU"
	1    6140 2895
	0    1    1    0   
$EndComp
$Comp
L OPL_Resistor:SMD-RES-1K-5%-1_8W_0805_ R7
U 1 1 608C0B89
P 5705 2895
F 0 "R7" V 5705 2943 45  0000 L CNN
F 1 "SMD-RES-1K-5%-1_8W_0805_" V 5747 2943 45  0001 L CNN
F 2 "Resistor_SMD:R_0805_2012Metric" H 5705 2895 40  0001 C CNN
F 3 "" H 5705 2895 40  0001 C CNN
F 4 "RC0805JR-071KL" H 5735 3045 20  0001 C CNN "MPN"
F 5 "301010311" H 5735 3045 20  0001 C CNN "SKU"
	1    5705 2895
	0    1    1    0   
$EndComp
$Comp
L OPL_Resistor:SMD-RES-1K-5%-1_8W_0805_ R8
U 1 1 608C14FB
P 5910 2895
F 0 "R8" V 5910 2943 45  0000 L CNN
F 1 "SMD-RES-1K-5%-1_8W_0805_" V 5952 2943 45  0001 L CNN
F 2 "Resistor_SMD:R_0805_2012Metric" H 5910 2895 40  0001 C CNN
F 3 "" H 5910 2895 40  0001 C CNN
F 4 "RC0805JR-071KL" H 5940 3045 20  0001 C CNN "MPN"
F 5 "301010311" H 5940 3045 20  0001 C CNN "SKU"
	1    5910 2895
	0    1    1    0   
$EndComp
Wire Wire Line
	5910 2745 5705 2745
Wire Wire Line
	5705 2745 5705 2625
Wire Wire Line
	5705 2625 5775 2625
Text GLabel 5775 2625 2    50   Input ~ 0
USB5V
$Comp
L OPL_Optoelectronics:SMD-LED-CLEAR-RED_0805_ RX1
U 1 1 608CAAE0
P 5705 3195
F 0 "RX1" V 5585 3010 45  0000 L CNN
F 1 "SMD-LED-CLEAR-RED_0805_" V 5710 2995 45  0001 L CNN
F 2 "Diode_SMD:D_0805_2012Metric" H 5705 3195 50  0001 C CNN
F 3 "" H 5705 3195 50  0001 C CNN
F 4 "17-215SURC_S530-A2_TR8" H 5735 3345 20  0001 C CNN "MPN"
F 5 "304090046" H 5735 3345 20  0001 C CNN "SKU"
	1    5705 3195
	0    1    1    0   
$EndComp
$Comp
L OPL_Optoelectronics:SMD-LED-CLEAR-RED_0805_ TX1
U 1 1 608CC29D
P 5910 3195
F 0 "TX1" V 5775 3105 45  0000 L CNN
F 1 "SMD-LED-CLEAR-RED_0805_" V 5755 3110 45  0001 L CNN
F 2 "Diode_SMD:D_0805_2012Metric" H 5910 3195 50  0001 C CNN
F 3 "" H 5910 3195 50  0001 C CNN
F 4 "17-215SURC_S530-A2_TR8" H 5940 3345 20  0001 C CNN "MPN"
F 5 "304090046" H 5940 3345 20  0001 C CNN "SKU"
	1    5910 3195
	0    1    1    0   
$EndComp
$Comp
L OPL_Optoelectronics:SMD-LED-CLEAR-GREEN_0805_ PWR1
U 1 1 608CDEB0
P 6140 3195
F 0 "PWR1" V 5995 3235 45  0000 L CNN
F 1 "SMD-LED-CLEAR-GREEN_0805_" V 6182 3398 45  0001 L CNN
F 2 "Diode_SMD:D_0805_2012Metric" H 6140 3195 50  0001 C CNN
F 3 "" H 6140 3195 50  0001 C CNN
F 4 "17-215SYGC_S530-E2_TR8" H 6170 3345 20  0001 C CNN "MPN"
F 5 "304090057" H 6170 3345 20  0001 C CNN "SKU"
	1    6140 3195
	0    1    1    0   
$EndComp
Wire Wire Line
	4445 2100 5390 2100
Wire Wire Line
	5390 2100 5390 3345
Wire Wire Line
	5390 3345 5705 3345
Wire Wire Line
	5910 3345 5910 3410
Wire Wire Line
	5910 3410 5305 3410
Wire Wire Line
	5305 3410 5305 2200
Wire Wire Line
	5305 2200 4445 2200
Wire Wire Line
	6140 3445 6140 3345
Wire Wire Line
	5510 1695 5510 1775
Wire Wire Line
	4445 1200 4540 1200
Wire Wire Line
	4445 1300 4825 1300
Wire Wire Line
	4445 1600 4790 1600
Wire Wire Line
	4445 3100 4715 3100
Wire Wire Line
	4715 3100 4715 3220
Wire Wire Line
	4445 2700 4445 2900
Connection ~ 4445 3100
Connection ~ 4445 2900
Wire Wire Line
	4445 2900 4445 3000
Connection ~ 4445 3000
Wire Wire Line
	4445 3000 4445 3100
NoConn ~ 4445 1700
NoConn ~ 4445 1800
$Comp
L OPL_Capacitor:TANTALUM-SMD-10UF-10V-10%_AVX-A_ C6
U 1 1 60921E1A
P 2585 1510
F 0 "C6" V 2585 1638 45  0000 L CNN
F 1 "TANTALUM-SMD-10UF-10V-10%_AVX-A_" V 2627 1638 45  0001 L CNN
F 2 "Capacitor_Tantalum_SMD:CP_EIA-3216-18_Kemet-A" H 2585 1510 50  0001 C CNN
F 3 "" H 2585 1510 50  0001 C CNN
F 4 "TAJA106K010RNJ" H 2615 1660 20  0001 C CNN "MPN"
F 5 "302020011" H 2615 1660 20  0001 C CNN "SKU"
	1    2585 1510
	0    1    1    0   
$EndComp
Wire Wire Line
	2585 1360 2585 1200
Connection ~ 2585 1200
Wire Wire Line
	2585 1660 2585 1685
Wire Wire Line
	2585 1685 2275 1685
Connection ~ 2275 1685
Text GLabel 4500 810  0    50   Input ~ 0
TXD
Text GLabel 4790 800  0    50   Input ~ 0
RXD
Wire Wire Line
	4500 810  4540 810 
Wire Wire Line
	4540 810  4540 1200
Text GLabel 5450 1595 0    50   Input ~ 0
USB5V
Wire Wire Line
	5510 1595 5450 1595
Wire Wire Line
	4790 800  4825 800 
Wire Wire Line
	4825 800  4825 1300
Wire Wire Line
	5370 4875 5370 4975
Connection ~ 5370 4975
$Comp
L OPL_Discrete_Semiconductor:SMD-MOSFET-P-CH-8V-4.1A-CJ2305_SOT-23_ Q1
U 1 1 609B716F
P 5370 4675
F 0 "Q1" V 5527 4675 45  0000 C CNN
F 1 "SMD-MOSFET-P-CH-8V-4.1A-CJ2305_SOT-23_" V 5527 4675 45  0001 C CNN
F 2 "Package_TO_SOT_SMD:SOT-23" H 5370 4675 50  0001 C CNN
F 3 "" H 5370 4675 50  0001 C CNN
F 4 "CJ2305" H 5400 4825 20  0001 C CNN "MPN"
F 5 "305030014" H 5400 4825 20  0001 C CNN "SKU"
	1    5370 4675
	0    -1   -1   0   
$EndComp
$Comp
L OPL_Discrete_Semiconductor:SMD-DIODE-SCHOTTKY-20V-1A_SOD-123_ D3
U 1 1 60A0D45F
P 5725 4825
F 0 "D3" V 5725 4697 45  0000 R CNN
F 1 "SMD-DIODE-SCHOTTKY-20V-1A_SOD-123_" H 5725 4995 45  0001 C CNN
F 2 "OPL_Discrete_Semiconductor:SOD-123" H 5725 4825 50  0001 C CNN
F 3 "" H 5725 4825 50  0001 C CNN
F 4 "B5819W" H 5755 4975 20  0001 C CNN "MPN"
F 5 "304020034" H 5755 4975 20  0001 C CNN "SKU"
	1    5725 4825
	0    -1   -1   0   
$EndComp
$Comp
L OPL_Resistor:SMD-RES-10K-1%-1_8W_0805_ R6
U 1 1 60A1A34C
P 5370 5125
F 0 "R6" V 5370 5173 45  0000 L CNN
F 1 "SMD-RES-10K-1%-1_8W_0805_" V 5412 5173 45  0001 L CNN
F 2 "Resistor_SMD:R_0805_2012Metric" H 5370 5125 40  0001 C CNN
F 3 "" H 5370 5125 40  0001 C CNN
F 4 "RC0805FR-0710KL" H 5400 5275 20  0001 C CNN "MPN"
F 5 "301010361" H 5400 5275 20  0001 C CNN "SKU"
	1    5370 5125
	0    1    1    0   
$EndComp
Connection ~ 5725 4675
Wire Wire Line
	5370 4975 5010 4975
Wire Wire Line
	5370 4975 5725 4975
Wire Wire Line
	5370 5275 5370 5375
$Comp
L OPL_Resistor:SMD-RES-47K-5%-1_10W_0603_ R10
U 1 1 60A838E0
P 7930 5055
F 0 "R10" V 8020 4890 45  0000 L CNN
F 1 "SMD-RES-47K-5%-1_10W_0603_" V 7972 5103 45  0001 L CNN
F 2 "Resistor_SMD:R_0805_2012Metric" H 7930 5055 40  0001 C CNN
F 3 "" H 7930 5055 40  0001 C CNN
F 4 "RC0603JR-0747KL" H 7960 5205 20  0001 C CNN "MPN"
F 5 "301010084" H 7960 5205 20  0001 C CNN "SKU"
	1    7930 5055
	0    1    1    0   
$EndComp
Wire Wire Line
	7930 4905 8190 4905
Wire Wire Line
	7930 4905 7830 4905
Connection ~ 7930 4905
$Comp
L OPL_Capacitor:TANTALUM-SMD-10UF-10V-10%_AVX-A_ C10
U 1 1 60A9B0B5
P 9675 5130
F 0 "C10" V 9675 5258 45  0000 L CNN
F 1 "TANTALUM-SMD-10UF-10V-10%_AVX-A_" V 9717 5258 45  0001 L CNN
F 2 "Capacitor_Tantalum_SMD:CP_EIA-3216-18_Kemet-A" H 9675 5130 50  0001 C CNN
F 3 "" H 9675 5130 50  0001 C CNN
F 4 "TAJA106K010RNJ" H 9705 5280 20  0001 C CNN "MPN"
F 5 "302020011" H 9705 5280 20  0001 C CNN "SKU"
	1    9675 5130
	0    1    1    0   
$EndComp
Text Notes 5615 1870 0    50   ~ 0
UART_PROG
Text GLabel 4765 1800 0    50   Input ~ 0
DTR
Wire Wire Line
	4765 1800 4790 1800
$Comp
L power:GND #PWR016
U 1 1 6087268B
P 1675 1930
F 0 "#PWR016" H 1675 1680 50  0001 C CNN
F 1 "GND" H 1680 1757 50  0000 C CNN
F 2 "" H 1675 1930 50  0001 C CNN
F 3 "" H 1675 1930 50  0001 C CNN
	1    1675 1930
	1    0    0    -1  
$EndComp
$Comp
L power:GND #PWR020
U 1 1 60873071
P 2945 2990
F 0 "#PWR020" H 2945 2740 50  0001 C CNN
F 1 "GND" H 2950 2817 50  0000 C CNN
F 2 "" H 2945 2990 50  0001 C CNN
F 3 "" H 2945 2990 50  0001 C CNN
	1    2945 2990
	1    0    0    -1  
$EndComp
$Comp
L power:GND #PWR024
U 1 1 60873576
P 4715 3220
F 0 "#PWR024" H 4715 2970 50  0001 C CNN
F 1 "GND" H 4720 3047 50  0000 C CNN
F 2 "" H 4715 3220 50  0001 C CNN
F 3 "" H 4715 3220 50  0001 C CNN
	1    4715 3220
	1    0    0    -1  
$EndComp
$Comp
L power:GND #PWR027
U 1 1 60873A73
P 6140 3445
F 0 "#PWR027" H 6140 3195 50  0001 C CNN
F 1 "GND" H 6145 3272 50  0000 C CNN
F 2 "" H 6140 3445 50  0001 C CNN
F 3 "" H 6140 3445 50  0001 C CNN
	1    6140 3445
	1    0    0    -1  
$EndComp
$Comp
L power:GND #PWR026
U 1 1 60873F72
P 5510 1775
F 0 "#PWR026" H 5510 1525 50  0001 C CNN
F 1 "GND" H 5515 1602 50  0000 C CNN
F 2 "" H 5510 1775 50  0001 C CNN
F 3 "" H 5510 1775 50  0001 C CNN
	1    5510 1775
	1    0    0    -1  
$EndComp
$Comp
L power:GND #PWR025
U 1 1 60875457
P 5370 5375
F 0 "#PWR025" H 5370 5125 50  0001 C CNN
F 1 "GND" H 5375 5202 50  0000 C CNN
F 2 "" H 5370 5375 50  0001 C CNN
F 3 "" H 5370 5375 50  0001 C CNN
	1    5370 5375
	1    0    0    -1  
$EndComp
$Comp
L horacio_lib:MIC5205-3.3YM5 U6
U 1 1 608DB063
P 8690 5055
F 0 "U6" H 8690 5452 60  0000 C CNN
F 1 "MIC5205-3.3YM5" H 8690 5346 60  0000 C CNN
F 2 "Package_TO_SOT_SMD:SOT-23-5" H 8690 5055 60  0001 C CNN
F 3 "" H 8690 5055 60  0000 C CNN
F 4 "MIC5205-3.0YM5-TR" H 8690 5055 50  0001 C CNN "MPN"
	1    8690 5055
	1    0    0    -1  
$EndComp
Wire Wire Line
	8160 5055 8190 5055
Connection ~ 1585 2690
Wire Wire Line
	1585 2990 1585 2690
Wire Wire Line
	1585 2690 1710 2690
Text GLabel 1620 2170 2    60   Input ~ 0
USB5V
Wire Wire Line
	2335 2690 2335 2990
Connection ~ 2335 2990
Wire Wire Line
	1620 2170 1585 2170
$Comp
L OPL_Switch:SMD-BUTTON_2+2P-7X3.5MM-90D_ K1
U 1 1 60966636
P 1835 3040
F 0 "K1" H 1835 2870 45  0000 C CNN
F 1 "SMD-BUTTON_2+2P-7X3.5MM-90D_" H 1835 3210 45  0001 C CNN
F 2 "snap_eda:SW4-SMD-7.0X3.5X3.5MM-90D" H 1835 3040 50  0001 C CNN
F 3 "https://statics3.seeedstudio.com/fusion/opl/datasheet/311020023.pdf" H 1835 3040 50  0001 C CNN
F 4 "TS-1188E" H 1865 3190 20  0001 C CNN "MPN"
F 5 "311020023" H 1865 3190 20  0001 C CNN "SKU"
	1    1835 3040
	1    0    0    1   
$EndComp
Wire Wire Line
	1585 3090 1585 3170
Wire Wire Line
	1585 3170 2085 3170
Wire Wire Line
	2085 3170 2085 3090
Connection ~ 2085 3170
Wire Wire Line
	2085 2990 2335 2990
Wire Wire Line
	2335 3170 2335 3225
Wire Wire Line
	2085 3170 2335 3170
Wire Wire Line
	2335 2990 2335 3170
Connection ~ 2335 3170
$Comp
L OPL_Capacitor:CERAMIC-100NF-50V-10%-X7R_0805_ C?
U 1 1 60966650
P 1860 2690
AR Path="/60966650" Ref="C?"  Part="1" 
AR Path="/50D1016D/60966650" Ref="C3"  Part="1" 
F 0 "C3" H 1860 2800 45  0000 C CNN
F 1 "CERAMIC-100NF-50V-10%-X7R_0805_" H 1860 2800 45  0001 C CNN
F 2 "Capacitor_SMD:C_0805_2012Metric" H 1860 2690 50  0001 C CNN
F 3 "" H 1860 2690 50  0001 C CNN
F 4 "CC0805KRX7R9BB104" H 1890 2840 20  0001 C CNN "MPN"
F 5 "302010165" H 1890 2840 20  0001 C CNN "SKU"
	1    1860 2690
	1    0    0    -1  
$EndComp
Wire Wire Line
	2010 2690 2335 2690
$Comp
L power:GND #PWR018
U 1 1 60966657
P 2335 3225
F 0 "#PWR018" H 2335 2975 50  0001 C CNN
F 1 "GND" H 2340 3052 50  0000 C CNN
F 2 "" H 2335 3225 50  0001 C CNN
F 3 "" H 2335 3225 50  0001 C CNN
	1    2335 3225
	1    0    0    -1  
$EndComp
Wire Wire Line
	3070 4345 3070 4875
Wire Wire Line
	3355 5175 3575 5175
Wire Wire Line
	3355 4665 3355 5175
Wire Wire Line
	3520 4665 3355 4665
Connection ~ 3355 5175
Wire Wire Line
	3070 5175 3355 5175
Wire Wire Line
	3070 5510 3070 5475
Wire Wire Line
	2070 5520 2070 5475
$Comp
L power:GND #PWR019
U 1 1 608ECAFF
P 2785 4550
F 0 "#PWR019" H 2785 4300 50  0001 C CNN
F 1 "GND" V 2790 4422 50  0000 R CNN
F 2 "" H 2785 4550 50  0001 C CNN
F 3 "" H 2785 4550 50  0001 C CNN
	1    2785 4550
	0    -1   -1   0   
$EndComp
Wire Wire Line
	3115 5025 3070 5025
$Comp
L power:GND #PWR022
U 1 1 608E8003
P 3115 5025
F 0 "#PWR022" H 3115 4775 50  0001 C CNN
F 1 "GND" V 3160 5135 50  0000 R CNN
F 2 "" H 3115 5025 50  0001 C CNN
F 3 "" H 3115 5025 50  0001 C CNN
	1    3115 5025
	0    -1   -1   0   
$EndComp
$Comp
L horacio_lib:MCP73831 U3
U 1 1 608E2C75
P 2570 5025
F 0 "U3" H 2570 5422 60  0000 C CNN
F 1 "MCP73831" H 2570 5316 60  0000 C CNN
F 2 "Package_TO_SOT_SMD:SOT-23-5" H 2570 5025 60  0001 C CNN
F 3 "" H 2570 5025 60  0000 C CNN
F 4 "MCP73831T-2ACI/OT" H 2570 5025 50  0001 C CNN "MPN"
	1    2570 5025
	-1   0    0    -1  
$EndComp
$Comp
L power:GND #PWR023
U 1 1 60874EFE
P 3675 5210
F 0 "#PWR023" H 3675 4960 50  0001 C CNN
F 1 "GND" H 3680 5037 50  0000 C CNN
F 2 "" H 3675 5210 50  0001 C CNN
F 3 "" H 3675 5210 50  0001 C CNN
	1    3675 5210
	1    0    0    -1  
$EndComp
$Comp
L power:GND #PWR021
U 1 1 60874953
P 3070 5510
F 0 "#PWR021" H 3070 5260 50  0001 C CNN
F 1 "GND" H 3075 5337 50  0000 C CNN
F 2 "" H 3070 5510 50  0001 C CNN
F 3 "" H 3070 5510 50  0001 C CNN
	1    3070 5510
	1    0    0    -1  
$EndComp
$Comp
L power:GND #PWR017
U 1 1 60874450
P 2070 5520
F 0 "#PWR017" H 2070 5270 50  0001 C CNN
F 1 "GND" H 2075 5347 50  0000 C CNN
F 2 "" H 2070 5520 50  0001 C CNN
F 3 "" H 2070 5520 50  0001 C CNN
	1    2070 5520
	1    0    0    -1  
$EndComp
Text Notes 1565 4070 0    50   ~ 0
Li-Po BAT charge status LED
Wire Wire Line
	2255 4345 3070 4345
Wire Wire Line
	1870 4345 1955 4345
$Comp
L OPL_Resistor:SMD-RES-2.2K-5%-1_8W_0805_ R3
U 1 1 60A6A10B
P 2105 4345
F 0 "R3" H 2105 4435 45  0000 C CNN
F 1 "SMD-RES-2.2K-5%-1_8W_0805_" H 2105 4435 45  0001 C CNN
F 2 "Resistor_SMD:R_0805_2012Metric" H 2105 4345 40  0001 C CNN
F 3 "" H 2105 4345 40  0001 C CNN
F 4 "RC0805JR-072K2L" H 2135 4495 20  0001 C CNN "MPN"
F 5 "301010333" H 2135 4495 20  0001 C CNN "SKU"
	1    2105 4345
	-1   0    0    -1  
$EndComp
$Comp
L OPL_Optoelectronics:SMD-LED-CLEAR-GREEN_0805_ D1
U 1 1 60A68F86
P 1720 4345
F 0 "D1" H 1720 4175 45  0000 C CNN
F 1 "SMD-LED-CLEAR-GREEN_0805_" H 1720 4175 45  0001 C CNN
F 2 "Diode_SMD:D_0805_2012Metric" H 1720 4345 50  0001 C CNN
F 3 "" H 1720 4345 50  0001 C CNN
F 4 "17-215SYGC_S530-E2_TR8" H 1750 4495 20  0001 C CNN "MPN"
F 5 "304090057" H 1750 4495 20  0001 C CNN "SKU"
	1    1720 4345
	1    0    0    1   
$EndComp
Wire Wire Line
	2410 4550 2370 4550
Wire Wire Line
	2710 4550 2785 4550
$Comp
L OPL_Resistor:SMD-RES-1K-5%-1_8W_0805_ R5
U 1 1 60A50BA3
P 2560 4550
F 0 "R5" H 2560 4640 45  0000 C CNN
F 1 "SMD-RES-1K-5%-1_8W_0805_" H 2560 4640 45  0001 C CNN
F 2 "Resistor_SMD:R_0805_2012Metric" H 2560 4550 40  0001 C CNN
F 3 "" H 2560 4550 40  0001 C CNN
F 4 "RC0805JR-071KL" H 2590 4700 20  0001 C CNN "MPN"
F 5 "301010311" H 2590 4700 20  0001 C CNN "SKU"
	1    2560 4550
	-1   0    0    -1  
$EndComp
Wire Wire Line
	2070 4550 2070 4875
$Comp
L OPL_Resistor:SMD-RES-1K-5%-1_8W_0805_ R4
U 1 1 60A501C6
P 2220 4550
F 0 "R4" H 2220 4640 45  0000 C CNN
F 1 "SMD-RES-1K-5%-1_8W_0805_" H 2220 4640 45  0001 C CNN
F 2 "Resistor_SMD:R_0805_2012Metric" H 2220 4550 40  0001 C CNN
F 3 "" H 2220 4550 40  0001 C CNN
F 4 "RC0805JR-071KL" H 2250 4700 20  0001 C CNN "MPN"
F 5 "301010311" H 2250 4700 20  0001 C CNN "SKU"
	1    2220 4550
	-1   0    0    -1  
$EndComp
$Comp
L OPL_Capacitor:TANTALUM-SMD-10UF-10V-10%_AVX-A_ C4
U 1 1 60A06345
P 2070 5325
F 0 "C4" V 2070 5453 45  0000 L CNN
F 1 "TANTALUM-SMD-10UF-10V-10%_AVX-A_" V 2112 5453 45  0001 L CNN
F 2 "Capacitor_Tantalum_SMD:CP_EIA-3216-18_Kemet-A" H 2070 5325 50  0001 C CNN
F 3 "" H 2070 5325 50  0001 C CNN
F 4 "TAJA106K010RNJ" H 2100 5475 20  0001 C CNN "MPN"
F 5 "302020011" H 2100 5475 20  0001 C CNN "SKU"
	1    2070 5325
	0    -1   1    0   
$EndComp
Connection ~ 3070 5175
$Comp
L OPL_Capacitor:TANTALUM-SMD-10UF-10V-10%_AVX-A_ C8
U 1 1 60A003CD
P 3070 5325
F 0 "C8" V 3070 5453 45  0000 L CNN
F 1 "TANTALUM-SMD-10UF-10V-10%_AVX-A_" V 3112 5453 45  0001 L CNN
F 2 "Capacitor_Tantalum_SMD:CP_EIA-3216-18_Kemet-A" H 3070 5325 50  0001 C CNN
F 3 "" H 3070 5325 50  0001 C CNN
F 4 "TAJA106K010RNJ" H 3100 5475 20  0001 C CNN "MPN"
F 5 "302020011" H 3100 5475 20  0001 C CNN "SKU"
	1    3070 5325
	0    -1   1    0   
$EndComp
Wire Wire Line
	3675 5175 3675 5210
$Comp
L OPL_Connector:CONN-HEADER-PH-SIDE-_2P-2.0MM_ J3
U 1 1 609E6742
P 3625 5075
F 0 "J3" V 3692 4947 45  0000 R CNN
F 1 "CONN-HEADER-PH-SIDE-_2P-2.0MM_" V 3650 4947 45  0001 R CNN
F 2 "Connector_JST:JST_PH_B2B-PH-K_1x02_P2.00mm_Vertical" H 3625 5075 50  0001 C CNN
F 3 "" H 3625 5075 50  0001 C CNN
F 4 "B2B-PH-K-S(LF)(SN)" H 3655 5225 20  0001 C CNN "MPN"
	1    3625 5075
	0    -1   -1   0   
$EndComp
Wire Wire Line
	1570 5175 1570 4345
Connection ~ 2070 5175
Text GLabel 3520 4665 2    60   Input ~ 0
LIPO_BAT
Connection ~ 1570 5175
Wire Wire Line
	5090 4675 5170 4675
Wire Wire Line
	4790 4675 4745 4675
Wire Wire Line
	1570 5175 2070 5175
Wire Wire Line
	1350 5175 1570 5175
Text GLabel 4475 1400 2    50   Input ~ 0
RTS
Wire Wire Line
	4475 1400 4445 1400
$Comp
L OPL_Resistor:SMD-RES-10K-1%-1_8W_0805_ M2
U 1 1 60A1EA4A
P 9240 2810
F 0 "M2" V 9240 2858 45  0000 L CNN
F 1 "SMD-RES-10K-1%-1_8W_0805_" V 9282 2858 45  0001 L CNN
F 2 "Resistor_SMD:R_0805_2012Metric" H 9240 2810 40  0001 C CNN
F 3 "" H 9240 2810 40  0001 C CNN
F 4 "RC0805FR-0710KL" H 9270 2960 20  0001 C CNN "MPN"
F 5 "301010361" H 9270 2960 20  0001 C CNN "SKU"
	1    9240 2810
	0    1    1    0   
$EndComp
$Comp
L OPL_Capacitor:CERAMIC-100NF-50V-10%-X7R_0805_ C9
U 1 1 60A20547
P 9240 3145
F 0 "C9" V 9240 3213 45  0000 L CNN
F 1 "CERAMIC-100NF-50V-10%-X7R_0805_" V 9282 3213 45  0001 L CNN
F 2 "Capacitor_SMD:C_0805_2012Metric" H 9240 3145 50  0001 C CNN
F 3 "" H 9240 3145 50  0001 C CNN
F 4 "CC0805KRX7R9BB104" H 9270 3295 20  0001 C CNN "MPN"
F 5 "302010165" H 9270 3295 20  0001 C CNN "SKU"
	1    9240 3145
	0    1    1    0   
$EndComp
$Comp
L power:GND #PWR029
U 1 1 60A21A49
P 9240 3325
F 0 "#PWR029" H 9240 3075 50  0001 C CNN
F 1 "GND" H 9245 3152 50  0000 C CNN
F 2 "" H 9240 3325 50  0001 C CNN
F 3 "" H 9240 3325 50  0001 C CNN
	1    9240 3325
	1    0    0    -1  
$EndComp
Wire Wire Line
	9240 3325 9240 3295
Wire Wire Line
	9240 2960 9240 2995
Wire Wire Line
	9240 2995 9090 2995
Connection ~ 9240 2995
Wire Wire Line
	9240 2660 9240 2560
$Comp
L OPL_Discrete_Semiconductor:SMD-MOSFET-N-CH-20V-2.1A-CJ2302_SOT-23_ Q2
U 1 1 60A42C33
P 9725 2995
F 0 "Q2" H 9839 3037 45  0000 L CNN
F 1 "SMD-MOSFET-N-CH-AO3400" H 9839 2953 45  0000 L CNN
F 2 "Package_TO_SOT_SMD:SOT-23" H 9725 2995 50  0001 C CNN
F 3 "" H 9725 2995 50  0001 C CNN
F 4 "CJ3400" H 9755 3145 20  0001 C CNN "MPN"
F 5 "" H 9755 3145 20  0001 C CNN "SKU"
	1    9725 2995
	1    0    0    -1  
$EndComp
Wire Wire Line
	9240 2995 9525 2995
Wire Wire Line
	9725 2560 9725 2795
Wire Wire Line
	9725 3195 9725 3260
$Comp
L power:GND #PWR030
U 1 1 60B284CD
P 9725 3260
F 0 "#PWR030" H 9725 3010 50  0001 C CNN
F 1 "GND" H 9730 3087 50  0000 C CNN
F 2 "" H 9725 3260 50  0001 C CNN
F 3 "" H 9725 3260 50  0001 C CNN
	1    9725 3260
	1    0    0    -1  
$EndComp
$Comp
L power:VSS #PWR014
U 1 1 60B28B19
P 9725 2560
F 0 "#PWR014" H 9725 2410 50  0001 C CNN
F 1 "VSS" H 9740 2733 50  0000 C CNN
F 2 "" H 9725 2560 50  0001 C CNN
F 3 "" H 9725 2560 50  0001 C CNN
	1    9725 2560
	1    0    0    -1  
$EndComp
$Comp
L power:VSS #PWR031
U 1 1 60B2B029
P 9675 5340
F 0 "#PWR031" H 9675 5190 50  0001 C CNN
F 1 "VSS" H 9690 5513 50  0000 C CNN
F 2 "" H 9675 5340 50  0001 C CNN
F 3 "" H 9675 5340 50  0001 C CNN
	1    9675 5340
	-1   0    0    1   
$EndComp
$Comp
L power:VDD #PWR0104
U 1 1 60B370FA
P 9240 2560
F 0 "#PWR0104" H 9240 2410 50  0001 C CNN
F 1 "VDD" H 9255 2733 50  0000 C CNN
F 2 "" H 9240 2560 50  0001 C CNN
F 3 "" H 9240 2560 50  0001 C CNN
	1    9240 2560
	1    0    0    -1  
$EndComp
$Comp
L power:VDD #PWR0105
U 1 1 60B37F6E
P 7830 4905
F 0 "#PWR0105" H 7830 4755 50  0001 C CNN
F 1 "VDD" H 7845 5078 50  0000 C CNN
F 2 "" H 7830 4905 50  0001 C CNN
F 3 "" H 7830 4905 50  0001 C CNN
	1    7830 4905
	1    0    0    -1  
$EndComp
$Comp
L power:VDD #PWR0106
U 1 1 60B39379
P 5725 4675
F 0 "#PWR0106" H 5725 4525 50  0001 C CNN
F 1 "VDD" H 5740 4848 50  0000 C CNN
F 2 "" H 5725 4675 50  0001 C CNN
F 3 "" H 5725 4675 50  0001 C CNN
	1    5725 4675
	1    0    0    -1  
$EndComp
$Comp
L power:+3V3 #PWR0107
U 1 1 60B39A09
P 9675 4270
F 0 "#PWR0107" H 9675 4120 50  0001 C CNN
F 1 "+3V3" H 9690 4443 50  0000 C CNN
F 2 "" H 9675 4270 50  0001 C CNN
F 3 "" H 9675 4270 50  0001 C CNN
	1    9675 4270
	1    0    0    -1  
$EndComp
$Comp
L power:VSS #PWR0108
U 1 1 60B3A0A2
P 8160 5055
F 0 "#PWR0108" H 8160 4905 50  0001 C CNN
F 1 "VSS" V 8225 5015 50  0000 L CNN
F 2 "" H 8160 5055 50  0001 C CNN
F 3 "" H 8160 5055 50  0001 C CNN
	1    8160 5055
	0    -1   -1   0   
$EndComp
Connection ~ 5705 2745
$Comp
L power:VDD #PWR0109
U 1 1 60B8F671
P 6140 2745
F 0 "#PWR0109" H 6140 2595 50  0001 C CNN
F 1 "VDD" H 6155 2918 50  0000 C CNN
F 2 "" H 6140 2745 50  0001 C CNN
F 3 "" H 6140 2745 50  0001 C CNN
	1    6140 2745
	1    0    0    -1  
$EndComp
Wire Wire Line
	4445 1500 4785 1500
$Comp
L Connector_Generic:Conn_01x06 J8
U 1 1 60945B98
P 5710 1395
F 0 "J8" H 5790 1387 50  0000 L CNN
F 1 "Conn_01x06" H 5790 1296 50  0000 L CNN
F 2 "Connector_PinSocket_2.54mm:PinSocket_1x06_P2.54mm_Vertical" H 5710 1395 50  0001 C CNN
F 3 "https://statics3.seeedstudio.com/fusion/opl/datasheet/320030060.pdf" H 5710 1395 50  0001 C CNN
F 4 "F185-1106A1BSYC1" H 5710 1395 50  0001 C CNN "MPN"
	1    5710 1395
	1    0    0    -1  
$EndComp
Wire Wire Line
	1585 2170 1585 2690
Wire Wire Line
	3345 1300 3345 1500
Connection ~ 3345 1300
Text GLabel 9090 2995 0    50   Input ~ 0
EN
Wire Wire Line
	2585 1200 2865 1200
$Comp
L Connector_Generic:Conn_01x01 J9
U 1 1 6098EE8E
P 2865 1000
F 0 "J9" V 2829 912 50  0000 R CNN
F 1 "USB5V_TST" V 3035 1265 50  0000 R CNN
F 2 "TestPoint:TestPoint_Pad_D1.0mm" H 2865 1000 50  0001 C CNN
F 3 "~" H 2865 1000 50  0001 C CNN
	1    2865 1000
	0    -1   -1   0   
$EndComp
Connection ~ 2865 1200
Wire Wire Line
	2865 1200 3345 1200
$Comp
L Connector_Generic:Conn_01x01 J10
U 1 1 6098FC00
P 9340 4505
F 0 "J10" V 9304 4417 50  0000 R CNN
F 1 "+3V3_TST" V 9213 4417 50  0000 R CNN
F 2 "TestPoint:TestPoint_Pad_D1.0mm" H 9340 4505 50  0001 C CNN
F 3 "~" H 9340 4505 50  0001 C CNN
	1    9340 4505
	0    -1   -1   0   
$EndComp
Wire Wire Line
	4790 1600 4790 1800
Text GLabel 5470 1195 0    50   Input ~ 0
TXD
Text GLabel 5470 1395 0    50   Input ~ 0
RXD
Wire Wire Line
	5470 1195 5510 1195
Wire Wire Line
	5470 1395 5510 1395
Text GLabel 5470 1295 0    50   Input ~ 0
DTR
Text GLabel 5460 1495 0    50   Input ~ 0
CTS
Wire Wire Line
	5470 1295 5510 1295
Wire Wire Line
	5460 1495 5510 1495
Text GLabel 4785 1500 2    50   Input ~ 0
CTS
$Comp
L horacio_lib:UMH4N U5
U 1 1 60A5AC2C
P 8025 3145
F 0 "U5" H 8025 3542 60  0000 C CNN
F 1 "UMH4N" H 8025 3436 60  0000 C CNN
F 2 "Package_TO_SOT_SMD:SOT-363_SC-70-6" H 8025 3145 60  0001 C CNN
F 3 "https://fscdn.rohm.com/en/products/databook/datasheet/discrete/transistor/digital/emh4t2r-e.pdf" H 8025 3145 60  0001 C CNN
F 4 "" H 8025 3145 50  0001 C CNN "SKU"
F 5 "UMH4NTN" H 8025 3145 50  0001 C CNN "MPN"
	1    8025 3145
	1    0    0    -1  
$EndComp
Wire Wire Line
	8275 2995 8360 2995
Wire Wire Line
	7775 3295 7695 3295
Wire Wire Line
	8360 3470 7385 3470
Connection ~ 7385 3470
Wire Wire Line
	7385 3470 7150 3470
Text GLabel 7695 3295 0    50   Input ~ 0
GPIO0
Wire Wire Line
	8665 2750 7690 2750
Connection ~ 7690 2750
Wire Wire Line
	7690 2750 7160 2750
Text GLabel 8360 2995 2    50   Input ~ 0
EN
Wire Wire Line
	7775 3145 7690 3145
Wire Wire Line
	7690 2750 7690 3145
Wire Wire Line
	8360 3145 8275 3145
Wire Wire Line
	8360 3145 8360 3470
Wire Wire Line
	8275 3295 8665 3295
Wire Wire Line
	8665 2750 8665 3295
Text GLabel 7160 2750 0    50   Input ~ 0
DTR
Text GLabel 7150 3470 0    50   Input ~ 0
RTS
Wire Wire Line
	7775 2995 7385 2995
Wire Wire Line
	7385 2995 7385 3470
$Comp
L 10118193-0001LF:10118193-0001LF J11
U 1 1 60ACFE7E
P 1275 1500
F 0 "J11" H 1167 2065 50  0000 C CNN
F 1 "10118193-0001LF" H 1167 1974 50  0000 C CNN
F 2 "FCI_10118193-0001LF" H 1275 1500 50  0001 L BNN
F 3 "" H 1275 1500 50  0001 L BNN
F 4 "None" H 1275 1500 50  0001 L BNN "PRICE"
F 5 "Single Port 5 Contact Shielded SMT MICRO USB B-Type Receptacle" H 1275 1500 50  0001 L BNN "DESCRIPTION"
F 6 "None" H 1275 1500 50  0001 L BNN "PACKAGE"
F 7 "10118193-0001LF" H 1275 1500 50  0001 L BNN "MPN"
F 8 "Amphenol FCI" H 1275 1500 50  0001 L BNN "MF"
F 9 "320010003" H 1275 1500 50  0001 L BNN "SKU"
	1    1275 1500
	-1   0    0    -1  
$EndComp
Wire Wire Line
	1675 1800 1765 1800
Wire Wire Line
	1765 1685 1765 1800
Wire Wire Line
	1675 1800 1675 1930
Connection ~ 1675 1800
$Comp
L OPL_Discrete_Semiconductor:SMD-DIODE-100V-200MA_SOD-123_ D2
U 1 1 60ECF8B9
P 4940 4675
F 0 "D2" H 4940 4845 45  0000 C CNN
F 1 "SMD-DIODE-100V-200MA_SOD-123_" H 4940 4845 45  0001 C CNN
F 2 "OPL_Discrete_Semiconductor:SOD-123" H 4940 4675 50  0001 C CNN
F 3 "" H 4940 4675 50  0001 C CNN
F 4 "MMSD4148" H 4970 4825 20  0001 C CNN "MPN"
F 5 "304010007" H 4970 4825 20  0001 C CNN "SKU"
	1    4940 4675
	1    0    0    -1  
$EndComp
$EndSCHEMATC
