time,imageID,ROI,#rNum,red,green,blue,rStd,gStd,bStd,H,S,V,hStd,sStd,vStd,S_led,sStd_led,Ratio,S_tap,sStd_tap,S_sub,sStd_sub
20,1,0,6,123.4,126.0,113.4,0.4,0.4,0.6,72.0,9.9,49.4,3.2,0.6,0.1,1.0,1.6316726388697838,1.075825258,0,#DIV/0!,0,0
20,1,10,5,115.5,121.1,107.8,0.5,0.5,0.6,85.5,11.0,47.5,2.7,0.6,0.2,1.0,1.6242966323621928,1.075825258,0,#DIV/0!,0,0
20,1,15,4,127.6,132.7,117.3,0.5,0.5,0.7,79.9,11.6,52.0,2.8,0.7,0.2,1.513242476446169,1.535982057927266,1.075825258,0,#DIV/0!,0,0
20,1,20,3,120.5,127.6,113.2,0.6,0.6,0.6,89.5,11.3,50.0,2.8,0.7,0.2,1.2482330377601452,1.538649399236405,1.075825258,0,#DIV/0!,0,0
20,1,50,2,112.8,122.8,106.3,0.7,0.6,0.6,96.5,13.4,48.2,2.4,0.7,0.2,3.111496834435613,1.5227637971523003,1.075825258,0,#DIV/0!,0,0
20,1,100,1,110.7,120.2,104.0,0.6,0.4,0.7,95.2,13.5,47.2,2.4,0.6,0.2,3.2023567545619915,1.6142927685462654,1.075825258,0,#DIV/0!,0,0
40,2,0,6,122.7,126.0,111.4,0.5,0.4,0.5,73.5,11.6,49.4,2.4,0.5,0.2,1.513242476446169,1.7063305559181874,1.075825258,0,#DIV/0!,0,#DIV/0!
40,2,10,5,114.3,119.7,106.7,0.6,0.7,1.0,84.9,10.9,46.9,4.5,1.0,0.3,1.0,1.2984337929499261,1.075825258,0,#DIV/0!,0,#DIV/0!
40,2,15,4,127.5,131.8,118.5,0.5,0.4,1.0,79.4,10.1,51.7,4.2,0.8,0.2,1.0,1.4716537364501692,1.075825258,0,#DIV/0!,0,#DIV/0!
40,2,20,3,118.8,126.3,111.3,0.8,0.6,0.6,90.1,11.9,49.5,3.1,0.7,0.2,1.7782519151321945,1.533443866561782,1.075825258,0,#DIV/0!,0,#DIV/0!
40,2,50,2,110.2,121.8,106.2,0.9,0.6,0.6,104.3,12.8,47.8,3.0,0.7,0.2,2.573280231190269,1.5266252344823235,1.075825258,0,#DIV/0!,0,#DIV/0!
40,2,100,1,111.4,119.6,103.6,0.5,0.5,0.6,91.0,13.4,46.9,2.4,0.7,0.2,3.111496834435613,1.5227637971523003,1.075825258,0,#DIV/0!,0,#DIV/0!
60,3,0,6,123.2,125.7,111.4,0.4,0.4,0.6,70.5,11.3,49.3,2.7,0.6,0.2,1.2482330377601452,1.6225895420872392,1.075825258,0,#DIV/0!,0,#DIV/0!
60,3,10,5,114.4,118.8,104.3,0.8,0.9,1.2,78.2,12.2,46.6,5.3,1.3,0.4,2.0432613538182185,1.0122233324423275,1.075825258,0,#DIV/0!,0,#DIV/0!
60,3,15,4,126.5,132.4,117.2,0.6,0.7,0.9,83.0,11.5,51.9,3.6,0.9,0.3,1.424905996884161,1.368654537755427,1.075825258,0,#DIV/0!,0,#DIV/0!
60,3,20,3,116.0,124.5,109.8,0.8,0.8,0.8,94.7,11.8,48.8,3.4,0.9,0.3,1.6899154355701864,1.363605718017808,1.075825258,0,#DIV/0!,0,#DIV/0!
60,3,50,2,110.8,121.5,106.1,0.7,0.7,0.7,101.6,12.7,47.7,2.9,0.8,0.3,2.4849437516282595,1.438220639956379,1.075825258,0,#DIV/0!,0,#DIV/0!
60,3,100,1,110.5,119.7,102.4,0.6,0.5,0.7,91.8,14.5,46.9,2.5,0.7,0.2,4.110955955825782,1.517169211662971,1.075825258,0,#DIV/0!,0,#DIV/0!
80,4,0,6,122.6,125.0,110.7,0.4,0.4,0.4,70.4,11.4,49.0,2.2,0.5,0.2,1.336569517322153,1.706681735623664,1.075825258,0,#DIV/0!,0,#DIV/0!
80,4,10,5,114.1,119.0,104.3,0.7,0.9,1.0,80.1,12.3,46.7,4.5,1.1,0.3,2.1315978333802277,1.181332864815054,1.075825258,0,#DIV/0!,0,#DIV/0!
80,4,15,4,127.0,132.2,118.2,0.7,0.7,0.8,82.1,10.6,51.8,3.8,0.8,0.3,1.0,1.4645458356829737,1.075825258,0,#DIV/0!,0,#DIV/0!
80,4,20,3,117.3,125.2,109.1,0.7,0.6,0.8,89.4,12.8,49.1,3.2,0.8,0.2,2.573280231190269,1.4371176141786188,1.075825258,0,#DIV/0!,0,#DIV/0!
80,4,50,2,113.6,121.8,108.0,0.6,0.5,0.6,95.7,11.3,47.7,2.8,0.6,0.2,1.2482330377601452,1.6225895420872392,1.075825258,0,#DIV/0!,0,#DIV/0!
80,4,100,1,109.8,119.8,100.8,0.5,0.4,0.8,91.5,15.8,47.0,2.4,0.8,0.2,5.310973830630788,1.4110874366544437,1.075825258,0,#DIV/0!,0,#DIV/0!
100,5,0,6,122.2,125.2,111.7,0.4,0.5,0.5,73.3,10.8,49.1,2.5,0.5,0.2,1.0,1.7081068025945436,1.075825258,0,#DIV/0!,0,#DIV/0!
100,5,10,5,114.0,118.5,106.0,0.6,0.7,0.9,81.4,10.5,46.5,4.7,1.0,0.3,1.0,1.3073973224940938,1.075825258,0,#DIV/0!,0,#DIV/0!
100,5,15,4,127.4,131.8,119.2,0.6,0.7,1.0,81.2,9.6,51.7,4.7,0.9,0.3,1.0,1.403000047929856,1.075825258,0,#DIV/0!,0,#DIV/0!
100,5,20,3,117.5,125.8,111.8,0.6,0.6,0.8,95.6,11.1,49.3,3.3,0.8,0.2,1.0715600786361277,1.4577497886143465,1.075825258,0,#DIV/0!,0,#DIV/0!
100,5,50,2,112.8,122.5,107.3,0.6,0.4,0.6,98.4,12.4,48.0,2.5,0.6,0.2,2.2199343129422355,1.6174924431750966,1.075825258,0,#DIV/0!,0,#DIV/0!
100,5,100,1,110.1,118.2,102.2,0.5,0.5,0.7,90.3,13.5,46.4,2.6,0.7,0.2,3.2023567545619915,1.5221749001048117,1.075825258,0,#DIV/0!,0,#DIV/0!
120,6,0,6,122.5,124.9,111.8,0.6,0.5,0.8,70.8,10.5,49.0,3.9,0.7,0.2,1.0,1.546377737336717,1.075825258,0,#DIV/0!,0,#DIV/0!
120,6,10,5,114.1,119.3,104.8,0.8,0.8,1.1,81.6,12.2,46.8,4.8,1.1,0.3,2.0432613538182185,1.183951571581003,1.075825258,0,#DIV/0!,0,#DIV/0!
120,6,15,4,127.2,131.9,120.7,0.7,0.7,1.0,85.0,8.5,51.7,5.3,0.9,0.3,1.0,1.4245982197768359,1.075825258,0,#DIV/0!,0,#DIV/0!
120,6,20,3,118.4,125.8,110.2,0.7,0.7,0.8,88.7,12.4,49.3,3.1,0.8,0.3,2.2199343129422355,1.4416149243111993,1.075825258,0,#DIV/0!,0,#DIV/0!
120,6,50,2,113.1,122.2,106.2,0.7,0.5,0.6,94.2,13.1,47.9,2.6,0.6,0.2,2.8389170740564755,1.615230869745831,1.075825258,0,#DIV/0!,0,#DIV/0!
120,6,100,1,108.9,118.7,101.9,0.6,0.6,0.8,95.1,14.2,46.6,2.7,0.8,0.2,3.838376195446644,1.4232209459806868,1.075825258,0,#DIV/0!,0,#DIV/0!
140,7,0,6,122.7,125.3,113.2,0.4,0.4,0.6,73.3,9.7,49.2,3.3,0.6,0.2,1.0,1.6331973278601728,1.075825258,0,#DIV/0!,0,#DIV/0!
140,7,10,5,114.9,120.3,107.1,0.6,0.6,0.8,84.6,10.9,47.2,3.8,0.8,0.2,1.0,1.4604301183471957,1.075825258,0,#DIV/0!,0,#DIV/0!
140,7,15,4,129.3,133.2,121.6,0.5,0.7,0.8,80.4,8.8,52.2,4.3,0.8,0.3,1.0,1.491520057876695,1.075825258,0,#DIV/0!,0,#DIV/0!
140,7,20,3,118.5,127.1,112.8,0.8,0.5,0.6,96.1,11.3,49.8,3.1,0.7,0.2,1.2482330377601452,1.538649399236405,1.075825258,0,#DIV/0!,0,#DIV/0!
140,7,50,2,112.8,121.7,106.3,0.6,0.6,0.7,94.7,12.7,47.7,2.6,0.7,0.2,2.4849437516282595,1.5273227584988978,1.075825258,0,#DIV/0!,0,#DIV/0!
140,7,100,1,110.8,119.8,102.7,0.5,0.4,0.9,91.5,14.2,47.0,2.8,0.8,0.2,3.838376195446644,1.4232209459806868,1.075825258,0,#DIV/0!,0,#DIV/0!
160,8,0,6,123.0,125.6,112.8,0.4,0.5,0.6,72.2,10.2,49.3,3.2,0.6,0.2,1.0,1.6294901036948224,1.075825258,0,#DIV/0!,0,#DIV/0!
160,8,10,5,115.2,120.3,107.1,0.7,0.5,0.8,83.1,11.0,47.2,3.9,0.8,0.2,1.0,1.4590835494394347,1.075825258,0,#DIV/0!,0,#DIV/0!
160,8,15,4,128.7,133.7,122.3,0.5,0.6,0.9,86.1,8.5,52.4,4.5,0.8,0.2,1.0,1.4963753197604377,1.075825258,0,#DIV/0!,0,#DIV/0!
160,8,20,3,118.9,126.9,113.1,0.5,0.6,0.8,94.7,10.9,49.8,3.2,0.8,0.2,1.0,1.4604301183471957,1.075825258,0,#DIV/0!,0,#DIV/0!
160,8,50,2,112.9,122.2,108.1,0.6,0.4,0.5,99.3,11.5,47.9,2.5,0.6,0.2,1.424905996884161,1.6215258888969748,1.075825258,0,#DIV/0!,0,#DIV/0!
160,8,100,1,109.7,119.9,102.8,0.6,0.5,0.8,95.8,14.3,47.0,2.8,0.8,0.2,3.9292361155730244,1.4223422075606664,1.075825258,0,#DIV/0!,0,#DIV/0!
180,9,0,6,123.2,126.2,115.1,0.5,0.4,0.8,76.2,8.8,49.5,4.5,0.7,0.2,1.0,1.5656194768773493,1.075825258,0,#DIV/0!,0,#DIV/0!
180,9,10,5,114.8,119.2,106.9,0.9,0.9,1.3,81.6,10.3,46.7,6.3,1.3,0.3,1.0,1.0856357593313342,1.075825258,0,#DIV/0!,0,#DIV/0!
180,9,15,4,128.8,132.7,121.9,0.7,0.6,0.9,81.2,8.1,52.0,5.3,0.8,0.2,1.0,1.5029995613906826,1.075825258,0,#DIV/0!,0,#DIV/0!
180,9,20,3,120.0,127.6,112.3,0.8,0.6,0.8,89.6,12.0,50.0,3.5,0.8,0.3,1.8665883946942023,1.4463362360762604,1.075825258,0,#DIV/0!,0,#DIV/0!
180,9,50,2,114.2,122.5,108.4,0.6,0.5,0.5,95.1,11.6,48.1,2.6,0.6,0.2,1.513242476446169,1.6210165972559567,1.075825258,0,#DIV/0!,0,#DIV/0!
180,9,100,1,110.0,120.0,104.6,0.5,0.5,0.9,98.7,12.8,47.0,3.0,0.9,0.2,2.573280231190269,1.3475759682375628,1.075825258,0,#DIV/0!,0,#DIV/0!
200,10,0,6,123.3,127.3,115.7,0.5,0.5,0.8,80.8,9.1,49.9,3.9,0.7,0.2,1.0,1.561957093850217,1.075825258,0,#DIV/0!,0,#DIV/0!
200,10,10,5,117.1,122.2,107.9,0.5,0.5,0.7,81.7,11.7,47.9,3.0,0.7,0.2,1.601578956008177,1.5351215402786873,1.075825258,0,#DIV/0!,0,#DIV/0!
200,10,15,4,128.4,133.1,122.8,0.5,0.5,0.9,87.2,7.8,52.2,4.8,0.8,0.2,1.0,1.508077957762022,1.075825258,0,#DIV/0!,0,#DIV/0!
200,10,20,3,116.8,124.9,110.9,0.7,0.6,0.8,94.6,11.3,49.0,3.4,0.8,0.2,1.2482330377601452,1.4551210277033741,1.075825258,0,#DIV/0!,0,#DIV/0!
200,10,50,2,112.7,122.1,108.5,0.7,0.6,0.6,101.7,11.1,47.9,2.9,0.7,0.2,1.0715600786361277,1.540498338717793,1.075825258,0,#DIV/0!,0,#DIV/0!
200,10,100,1,111.8,120.8,109.1,0.6,0.6,1.0,105.9,9.7,47.4,4.3,1.0,0.3,1.0,1.325748960384745,1.075825258,0,#DIV/0!,0,#DIV/0!
220,11,0,6,124.5,126.8,117.3,0.5,0.3,0.8,74.7,7.5,49.7,5.2,0.7,0.1,1.0,1.582732621228677,1.075825258,0,#DIV/0!,0,#DIV/0!
220,11,10,5,117.7,122.2,110.1,0.5,0.5,0.4,82.3,9.9,47.9,2.7,0.5,0.2,1.0,1.7112644727023485,1.075825258,0,#DIV/0!,0,#DIV/0!
220,11,15,4,130.7,134.2,123.5,0.5,0.5,0.7,79.8,7.9,52.6,4.3,0.6,0.2,1.0,1.6493296127407313,1.075825258,0,#DIV/0!,0,#DIV/0!
220,11,20,3,117.5,125.0,112.3,0.7,0.6,0.9,95.5,10.2,49.0,3.9,0.9,0.2,1.0,1.3917302321034808,1.075825258,0,#DIV/0!,0,#DIV/0!
220,11,50,2,113.5,122.0,108.9,0.6,0.6,0.6,98.9,10.7,47.9,2.8,0.7,0.2,1.0,1.5443631282870254,1.075825258,0,#DIV/0!,0,#DIV/0!
220,11,100,1,112.2,121.3,109.6,0.6,0.6,0.8,106.9,9.6,47.6,3.8,0.8,0.2,1.0,1.4790631624103696,1.075825258,0,#DIV/0!,0,#DIV/0!
240,12,0,6,124.4,127.7,116.5,0.4,0.4,0.9,77.8,8.8,50.1,4.6,0.8,0.2,1.0,1.491520057876695,1.075825258,0,#DIV/0!,0,#DIV/0!
240,12,10,5,117.2,122.3,109.2,0.5,0.6,0.7,83.2,10.7,48.0,3.4,0.8,0.2,1.0,1.4631613450601,1.075825258,0,#DIV/0!,0,#DIV/0!
240,12,15,4,128.6,133.6,124.4,0.6,0.5,0.8,92.8,6.9,52.4,5.2,0.7,0.2,1.0,1.591281289092129,1.075825258,0,#DIV/0!,0,#DIV/0!
240,12,20,3,118.4,125.1,111.3,0.6,0.6,0.8,89.1,11.1,49.1,3.5,0.8,0.2,1.0715600786361277,1.4577497886143465,1.075825258,0,#DIV/0!,0,#DIV/0!
240,12,50,2,112.4,122.5,109.1,0.7,0.8,0.7,105.0,11.0,48.0,3.1,0.9,0.3,1.0,1.3773042877276453,1.075825258,0,#DIV/0!,0,#DIV/0!
240,12,100,1,111.2,120.5,108.6,0.6,0.7,0.8,106.7,9.9,47.3,3.8,0.9,0.3,1.0,1.3973183028061724,1.075825258,0,#DIV/0!,0,#DIV/0!
260,13,0,6,124.1,127.7,118.2,0.5,0.5,0.7,82.3,7.5,50.1,4.7,0.7,0.2,1.0,1.582732621228677,1.075825258,0,#DIV/0!,0,#DIV/0!
260,13,10,5,118.8,122.8,108.7,0.6,0.6,0.7,76.7,11.4,48.1,3.4,0.8,0.2,1.336569517322153,1.4538261963200565,1.075825258,0,#DIV/0!,0,#DIV/0!
260,13,15,4,129.4,134.2,123.6,0.6,0.6,0.9,87.2,7.9,52.6,4.9,0.8,0.2,1.0,1.5063748154715186,1.075825258,0,#DIV/0!,0,#DIV/0!
260,13,20,3,118.3,124.6,112.5,0.6,0.6,0.8,91.3,9.7,48.9,4.0,0.8,0.2,1.0,1.477557646197489,1.075825258,0,#DIV/0!,0,#DIV/0!
260,13,50,2,113.2,123.3,111.1,0.8,0.7,0.7,109.9,9.9,48.4,4.0,0.9,0.3,1.0,1.3973183028061724,1.075825258,0,#DIV/0!,0,#DIV/0!
260,13,100,1,112.9,121.8,110.6,0.5,0.5,0.8,107.7,9.3,47.8,3.9,0.8,0.2,1.0,1.4836493074195796,1.075825258,0,#DIV/0!,0,#DIV/0!
280,14,0,6,124.4,126.9,118.3,0.5,0.4,0.8,77.8,6.8,49.8,5.7,0.7,0.2,1.0,1.5927443007663542,1.075825258,0,#DIV/0!,0,#DIV/0!
280,14,10,5,117.5,122.5,109.0,0.7,0.6,0.7,82.2,11.0,48.0,3.5,0.8,0.3,1.0,1.4590835494394347,1.075825258,0,#DIV/0!,0,#DIV/0!
280,14,15,4,130.0,134.2,122.5,0.5,0.6,0.8,81.2,8.7,52.6,4.3,0.8,0.2,1.0,1.4931275684323237,1.075825258,0,#DIV/0!,0,#DIV/0!
280,14,20,3,117.3,124.6,111.0,0.6,0.6,1.0,92.2,10.9,48.9,4.0,1.0,0.3,1.0,1.2984337929499261,1.075825258,0,#DIV/0!,0,#DIV/0!
280,14,50,2,113.4,122.8,109.9,0.8,0.7,0.5,103.7,10.5,48.1,3.4,0.7,0.3,1.0,1.546377737336717,1.075825258,0,#DIV/0!,0,#DIV/0!
280,14,100,1,113.3,121.2,109.3,0.5,0.4,0.8,99.6,9.8,47.5,3.5,0.7,0.2,1.0,1.5538499453886028,1.075825258,0,#DIV/0!,0,#DIV/0!
300,15,0,6,124.0,127.7,116.1,0.5,0.4,0.7,79.1,9.0,50.1,3.8,0.6,0.2,1.0,1.6389636797314782,1.075825258,0,#DIV/0!,0,#DIV/0!
300,15,10,5,117.1,123.2,110.3,0.6,0.6,0.8,88.2,10.4,48.3,3.8,0.8,0.2,1.0,1.4673521550371051,1.075825258,0,#DIV/0!,0,#DIV/0!
300,15,15,4,129.2,133.5,123.2,0.5,0.5,1.1,85.0,7.7,52.4,5.6,0.9,0.2,1.0,1.441016198722167,1.075825258,0,#DIV/0!,0,#DIV/0!
300,15,20,3,117.5,125.3,111.5,0.8,0.6,0.9,93.8,11.0,49.1,3.9,0.8,0.2,1.0,1.4590835494394347,1.075825258,0,#DIV/0!,0,#DIV/0!
300,15,50,2,114.7,123.3,111.8,0.7,0.7,0.8,105.1,9.3,48.3,4.1,0.8,0.3,1.0,1.4836493074195796,1.075825258,0,#DIV/0!,0,#DIV/0!
300,15,100,1,112.1,122.0,109.8,0.6,0.5,0.8,108.5,10.0,47.8,3.6,0.8,0.2,1.0,1.4731118276675816,1.075825258,0,#DIV/0!,0,#DIV/0!
320,16,0,6,123.0,126.4,116.5,0.6,0.5,0.8,80.5,7.8,49.6,4.9,0.7,0.2,1.0,1.5786090090617468,1.075825258,0,#DIV/0!,0,#DIV/0!
320,16,10,5,116.7,121.5,108.7,0.9,0.9,1.0,82.5,10.5,47.6,5.2,1.1,0.4,1.0,1.2295865314476366,1.075825258,0,#DIV/0!,0,#DIV/0!
320,16,15,4,129.2,134.0,122.4,0.9,0.7,1.3,84.9,8.6,52.5,6.6,1.1,0.3,1.0,1.282737769931444,1.075825258,0,#DIV/0!,0,#DIV/0!
320,16,20,3,115.9,123.2,111.7,0.7,0.7,1.1,98.4,9.3,48.3,5.0,1.0,0.3,1.0,1.3351261928131195,1.075825258,0,#DIV/0!,0,#DIV/0!
320,16,50,2,112.9,123.4,111.8,0.7,0.8,0.8,114.4,9.3,48.4,4.0,0.9,0.3,1.0,1.408773197179334,1.075825258,0,#DIV/0!,0,#DIV/0!
320,16,100,1,112.3,121.5,110.5,0.7,0.5,0.8,110.1,9.1,47.6,4.0,0.8,0.2,1.0,1.4867639303400906,1.075825258,0,#DIV/0!,0,#DIV/0!
340,17,0,6,124.0,127.5,117.5,0.5,0.4,0.6,81.0,7.8,50.0,4.0,0.6,0.2,1.0,1.6503483556333092,1.075825258,0,#DIV/0!,0,#DIV/0!
340,17,10,5,117.9,122.8,109.6,0.5,0.7,0.7,82.3,10.7,48.2,3.3,0.8,0.3,1.0,1.4631613450601,1.075825258,0,#DIV/0!,0,#DIV/0!
340,17,15,4,131.0,134.9,123.4,0.4,0.4,0.9,80.2,8.6,52.9,4.3,0.7,0.2,1.0,1.5681221845771083,1.075825258,0,#DIV/0!,0,#DIV/0!
340,17,20,3,117.5,123.5,112.1,0.7,0.6,0.7,91.5,9.2,48.4,4.1,0.8,0.2,1.0,1.4852009529743884,1.075825258,0,#DIV/0!,0,#DIV/0!
340,17,50,2,113.6,122.5,109.9,0.6,0.8,0.6,102.8,10.3,48.0,3.1,0.8,0.3,1.0,1.4687738178313674,1.075825258,0,#DIV/0!,0,#DIV/0!
340,17,100,1,112.7,121.8,110.0,0.5,0.5,0.7,106.3,9.6,47.8,3.3,0.7,0.2,1.0,1.5561026308685093,1.075825258,0,#DIV/0!,0,#DIV/0!
360,18,0,6,124.1,128.3,118.8,0.5,0.4,0.9,86.2,7.4,50.3,5.1,0.8,0.2,1.0,1.5149921944538662,1.075825258,0,#DIV/0!,0,#DIV/0!
360,18,10,5,118.4,123.0,110.9,0.6,0.6,0.7,83.2,9.8,48.3,3.8,0.7,0.2,1.0,1.5538499453886028,1.075825258,0,#DIV/0!,0,#DIV/0!
360,18,15,4,130.2,135.2,125.2,0.4,0.4,0.7,89.9,7.4,53.0,3.9,0.6,0.2,1.0,1.6545469057496351,1.075825258,0,#DIV/0!,0,#DIV/0!
360,18,20,3,116.6,124.0,112.5,0.6,0.6,0.8,98.7,9.3,48.6,3.9,0.8,0.2,1.0,1.4836493074195796,1.075825258,0,#DIV/0!,0,#DIV/0!
360,18,50,2,113.9,123.6,111.4,0.7,0.7,0.7,107.7,9.9,48.5,3.3,0.8,0.3,1.0,1.4745818974706766,1.075825258,0,#DIV/0!,0,#DIV/0!
360,18,100,1,112.1,121.8,109.6,0.6,0.4,0.9,107.7,10.0,47.8,3.8,0.8,0.2,1.0,1.4731118276675816,1.075825258,0,#DIV/0!,0,#DIV/0!
380,19,0,6,124.6,127.7,118.8,0.4,0.4,0.7,80.7,7.0,50.1,4.6,0.6,0.2,1.0,1.6589398496746965,1.075825258,0,#DIV/0!,0,#DIV/0!
380,19,10,5,119.2,123.0,110.5,0.6,0.6,0.6,78.4,10.1,48.2,3.4,0.7,0.2,1.0,1.5505682901733828,1.075825258,0,#DIV/0!,0,#DIV/0!
380,19,15,4,131.1,134.8,125.3,0.5,0.4,0.5,82.9,7.0,52.8,3.8,0.5,0.2,1.0,1.7292362902488194,1.075825258,0,#DIV/0!,0,#DIV/0!
380,19,20,3,117.7,124.6,111.4,0.6,0.6,0.6,91.4,10.6,48.9,3.2,0.7,0.2,1.0,1.545363646160989,1.075825258,0,#DIV/0!,0,#DIV/0!
380,19,50,2,112.6,122.2,111.8,0.7,0.7,0.7,115.4,8.5,47.9,4.2,0.8,0.3,1.0,1.4963753197604377,1.075825258,0,#DIV/0!,0,#DIV/0!
380,19,100,1,112.9,122.7,111.8,0.5,0.6,0.7,113.8,8.9,48.1,3.5,0.8,0.2,1.0,1.489923562060733,1.075825258,0,#DIV/0!,0,#DIV/0!
400,20,0,6,124.4,126.9,116.8,0.6,0.4,0.8,74.6,8.0,49.8,5.0,0.7,0.2,1.0,1.5759170923728467,1.075825258,0,#DIV/0!,0,#DIV/0!
400,20,10,5,116.7,121.7,108.7,0.7,0.6,0.9,83.1,10.6,47.7,4.4,0.9,0.2,1.0,1.3844291717567236,1.075825258,0,#DIV/0!,0,#DIV/0!
400,20,15,4,129.4,135.1,122.8,0.7,0.6,1.0,87.8,9.1,53.0,4.9,0.9,0.2,1.0,1.4126716372647328,1.075825258,0,#DIV/0!,0,#DIV/0!
400,20,20,3,116.6,122.8,111.4,0.7,0.6,0.7,92.5,9.3,48.1,3.9,0.7,0.2,1.0,1.5595775035831985,1.075825258,0,#DIV/0!,0,#DIV/0!
400,20,50,2,113.5,123.1,111.7,0.9,0.7,1.0,110.7,9.3,48.3,4.9,1.0,0.3,1.0,1.3351261928131195,1.075825258,0,#DIV/0!,0,#DIV/0!
400,20,100,1,112.4,122.7,111.8,0.8,0.5,0.9,117.0,8.8,48.1,4.7,0.8,0.2,1.0,1.491520057876695,1.075825258,0,#DIV/0!,0,#DIV/0!
420,21,0,6,125.0,128.1,118.2,0.5,0.4,0.7,78.9,7.7,50.2,4.3,0.6,0.2,1.0,1.6513795259963846,1.075825258,0,#DIV/0!,0,#DIV/0!
420,21,10,5,117.0,123.0,111.3,0.5,0.6,0.6,90.8,9.5,48.2,3.2,0.7,0.2,1.0,1.5572482187449566,1.075825258,0,#DIV/0!,0,#DIV/0!
420,21,15,4,131.1,135.6,125.3,0.5,0.5,0.6,85.9,7.6,53.2,3.5,0.5,0.2,1.0,1.7245899492626413,1.075825258,0,#DIV/0!,0,#DIV/0!
420,21,20,3,115.7,124.4,112.0,0.6,0.5,0.8,101.8,10.0,48.8,3.4,0.8,0.2,1.0,1.4731118276675816,1.075825258,0,#DIV/0!,0,#DIV/0!
420,21,50,2,111.2,122.5,110.4,0.8,0.7,0.8,116.0,9.9,48.0,3.8,0.8,0.3,1.0,1.4745818974706766,1.075825258,0,#DIV/0!,0,#DIV/0!
420,21,100,1,112.5,122.6,113.1,0.6,0.4,0.7,123.6,8.3,48.1,3.9,0.6,0.2,1.0,1.6453803129736853,1.075825258,0,#DIV/0!,0,#DIV/0!
440,22,0,6,125.7,128.0,117.5,0.4,0.4,0.7,72.9,8.2,50.2,4.2,0.6,0.2,1.0,1.6463486471840978,1.075825258,0,#DIV/0!,0,#DIV/0!
440,22,10,5,119.2,123.8,111.9,0.6,0.5,0.8,83.2,9.6,48.5,3.9,0.7,0.2,1.0,1.5561026308685093,1.075825258,0,#DIV/0!,0,#DIV/0!
440,22,15,4,131.0,135.6,124.9,0.5,0.4,0.7,85.4,7.9,53.2,4.0,0.6,0.1,1.0,1.6493296127407313,1.075825258,0,#DIV/0!,0,#DIV/0!
440,22,20,3,115.8,123.8,111.4,0.5,0.4,0.6,98.6,10.0,48.5,2.9,0.6,0.2,1.0,1.6309311229142451,1.075825258,0,#DIV/0!,0,#DIV/0!
440,22,50,2,110.7,122.7,111.0,0.7,0.7,0.9,121.5,9.8,48.1,4.2,0.8,0.3,1.0,1.4760638641400214,1.075825258,0,#DIV/0!,0,#DIV/0!
440,22,100,1,112.4,122.7,113.2,0.6,0.6,0.8,124.6,8.4,48.1,4.3,0.7,0.2,1.0,1.5706730873256565,1.075825258,0,#DIV/0!,0,#DIV/0!
460,23,0,6,126.0,128.0,117.5,0.4,0.4,0.7,71.5,8.3,50.2,4.4,0.7,0.2,1.0,1.5719664251383778,1.075825258,0,#DIV/0!,0,#DIV/0!
460,23,10,5,122.9,126.8,114.4,0.5,0.5,0.8,78.6,9.7,49.7,3.9,0.7,0.2,1.0,1.5549698476275828,1.075825258,0,#DIV/0!,0,#DIV/0!
460,23,15,4,130.6,134.6,124.3,0.5,0.5,0.7,83.2,7.7,52.8,4.2,0.6,0.2,1.0,1.6513795259963846,1.075825258,0,#DIV/0!,0,#DIV/0!
460,23,20,3,115.2,123.5,111.4,0.5,0.5,0.5,101.3,9.8,48.4,2.8,0.6,0.2,1.0,1.6324280642188036,1.075825258,0,#DIV/0!,0,#DIV/0!
460,23,50,2,111.1,121.7,110.9,0.8,0.8,0.8,119.1,8.8,47.7,4.6,0.9,0.3,1.0,1.4185921718483698,1.075825258,0,#DIV/0!,0,#DIV/0!
460,23,100,1,110.8,122.0,111.2,0.7,0.6,0.7,122.6,9.2,47.9,3.9,0.8,0.2,1.0,1.4852009529743884,1.075825258,0,#DIV/0!,0,#DIV/0!
480,24,0,6,124.7,127.5,117.6,0.4,0.3,0.8,76.9,7.8,50.0,4.5,0.7,0.1,1.0,1.5786090090617468,1.075825258,0,#DIV/0!,0,#DIV/0!
480,24,10,5,126.6,129.8,118.4,0.4,0.6,0.7,77.0,8.8,50.9,3.8,0.7,0.2,1.0,1.5656194768773493,1.075825258,0,#DIV/0!,0,#DIV/0!
480,24,15,4,130.0,134.9,125.2,0.6,0.5,0.8,90.5,7.1,52.9,4.6,0.7,0.2,1.0,1.5883877502009254,1.075825258,0,#DIV/0!,0,#DIV/0!
480,24,20,3,114.0,124.3,111.0,0.5,0.6,0.8,106.8,10.7,48.7,3.0,0.8,0.2,1.0,1.4631613450601,1.075825258,0,#DIV/0!,0,#DIV/0!
480,24,50,2,112.2,122.5,110.5,0.7,0.7,0.7,111.3,9.8,48.0,3.6,0.8,0.3,1.0,1.4760638641400214,1.075825258,0,#DIV/0!,0,#DIV/0!
480,24,100,1,110.0,121.7,110.4,0.6,0.6,0.8,122.0,9.6,47.7,3.6,0.7,0.2,1.0,1.5561026308685093,1.075825258,0,#DIV/0!,0,#DIV/0!
500,25,0,6,130.5,133.1,122.9,0.6,0.5,0.7,74.8,7.7,52.2,4.6,0.6,0.2,1.0,1.6513795259963846,1.075825258,0,#DIV/0!,0,#DIV/0!
500,25,10,5,126.2,130.8,119.3,0.6,0.6,0.7,83.8,8.8,51.3,3.8,0.7,0.2,1.0,1.5656194768773493,1.075825258,0,#DIV/0!,0,#DIV/0!
500,25,15,4,131.8,136.3,127.0,0.5,0.5,0.6,89.1,6.8,53.5,4.1,0.6,0.2,1.0,1.661207837728424,1.075825258,0,#DIV/0!,0,#DIV/0!
500,25,20,3,113.4,123.4,112.4,0.5,0.5,0.6,114.5,8.9,48.4,2.9,0.6,0.2,1.0,1.6398410941788326,1.075825258,0,#DIV/0!,0,#DIV/0!
500,25,50,2,110.4,121.4,110.3,0.9,0.7,0.6,119.5,9.2,47.6,4.0,0.7,0.3,1.0,1.5607610484698091,1.075825258,0,#DIV/0!,0,#DIV/0!
500,25,100,1,109.6,122.7,110.6,0.7,0.5,0.7,124.7,10.7,48.1,3.3,0.7,0.2,1.0,1.5443631282870254,1.075825258,0,#DIV/0!,0,#DIV/0!
520,26,0,6,129.8,133.5,122.0,0.4,0.5,0.6,79.5,8.6,52.4,3.4,0.6,0.2,1.0,1.642552255617683,1.075825258,0,#DIV/0!,0,#DIV/0!
520,26,10,5,126.5,130.5,118.9,0.4,0.4,0.6,81.1,8.9,51.2,3.4,0.6,0.2,1.0,1.6398410941788326,1.075825258,0,#DIV/0!,0,#DIV/0!
520,26,15,4,132.1,137.4,128.9,0.4,0.6,0.7,97.5,6.2,53.9,4.7,0.7,0.2,1.0,1.601745283360278,1.075825258,0,#DIV/0!,0,#DIV/0!
520,26,20,3,113.3,123.2,112.1,0.4,0.5,0.7,113.7,9.0,48.3,3.2,0.7,0.2,1.0,1.563165564041593,1.075825258,0,#DIV/0!,0,#DIV/0!
520,26,50,2,108.1,121.4,110.6,0.7,0.9,0.6,131.1,11.0,47.6,3.0,0.9,0.3,1.0,1.3773042877276453,1.075825258,0,#DIV/0!,0,#DIV/0!
520,26,100,1,108.9,122.8,112.2,0.5,0.5,0.7,134.2,11.3,48.1,2.8,0.6,0.2,1.2482330377601452,1.6225895420872392,1.075825258,0,#DIV/0!,0,#DIV/0!
540,27,0,6,129.7,132.6,122.4,0.5,0.5,0.7,77.3,7.7,52.0,4.4,0.6,0.2,1.0,1.6513795259963846,1.075825258,0,#DIV/0!,0,#DIV/0!
540,27,10,5,125.0,130.2,119.8,0.6,0.5,0.7,90.1,8.0,51.1,4.2,0.7,0.2,1.0,1.5759170923728467,1.075825258,0,#DIV/0!,0,#DIV/0!
540,27,15,4,134.2,137.5,127.3,0.6,0.5,0.7,79.2,7.5,53.9,4.6,0.6,0.2,1.0,1.653478870558478,1.075825258,0,#DIV/0!,0,#DIV/0!
540,27,20,3,113.3,124.4,111.9,0.7,0.6,0.6,113.3,10.1,48.8,3.1,0.7,0.2,1.0,1.5505682901733828,1.075825258,0,#DIV/0!,0,#DIV/0!
540,27,50,2,107.8,120.3,110.8,0.7,0.7,0.8,134.5,10.3,47.2,3.6,0.8,0.3,1.0,1.4687738178313674,1.075825258,0,#DIV/0!,0,#DIV/0!
540,27,100,1,113.5,128.0,116.8,0.7,0.7,0.9,133.6,11.3,50.2,3.4,0.7,0.3,1.2482330377601452,1.538649399236405,1.075825258,0,#DIV/0!,0,#DIV/0!
560,28,0,6,128.9,133.0,121.8,0.6,0.6,0.8,81.6,8.4,52.1,4.4,0.8,0.3,1.0,1.4980154042470644,1.075825258,0,#DIV/0!,0,#DIV/0!
560,28,10,5,127.3,130.8,120.9,0.4,0.5,0.8,81.1,7.6,51.3,4.7,0.7,0.2,1.0,1.5813467498078297,1.075825258,0,#DIV/0!,0,#DIV/0!
560,28,15,4,133.9,138.4,128.5,0.6,0.6,0.8,87.4,7.2,54.3,4.8,0.7,0.2,1.0,1.586957366296371,1.075825258,0,#DIV/0!,0,#DIV/0!
560,28,20,3,115.9,126.9,112.4,0.7,0.7,0.6,105.4,11.5,49.8,2.8,0.7,0.3,1.424905996884161,1.5368569255513091,1.075825258,0,#DIV/0!,0,#DIV/0!
560,28,50,2,106.8,121.0,109.4,0.8,0.7,0.8,131.0,11.8,47.5,3.3,0.9,0.3,1.6899154355701864,1.363605718017808,1.075825258,0,#DIV/0!,0,#DIV/0!
560,28,100,1,112.8,127.6,116.8,0.7,0.6,0.8,136.3,11.6,50.1,3.1,0.7,0.2,1.513242476446169,1.535982057927266,1.075825258,0,#DIV/0!,0,#DIV/0!
580,29,0,6,130.4,134.3,124.8,0.4,0.3,0.7,84.9,7.1,52.7,4.0,0.6,0.1,1.0,1.6578236313851267,1.075825258,0,#DIV/0!,0,#DIV/0!
580,29,10,5,125.7,130.6,120.2,0.5,0.5,0.7,88.7,7.9,51.2,4.1,0.7,0.2,1.0,1.5772572860158547,1.075825258,0,#DIV/0!,0,#DIV/0!
580,29,15,4,133.6,140.1,129.4,0.5,0.6,0.8,96.7,7.6,55.0,3.9,0.7,0.2,1.0,1.5813467498078297,1.075825258,0,#DIV/0!,0,#DIV/0!
580,29,20,3,115.7,127.3,116.4,0.5,0.7,0.8,123.6,9.1,49.9,3.5,0.6,0.3,1.0,1.6380995360900181,1.075825258,0,#DIV/0!,0,#DIV/0!
580,29,50,2,106.8,120.7,110.9,0.7,0.7,0.8,137.8,11.6,47.3,3.3,0.8,0.3,1.513242476446169,1.451276054768929,1.075825258,0,#DIV/0!,0,#DIV/0!
580,29,100,1,111.7,126.2,117.3,0.6,0.7,1.0,143.3,11.5,49.5,3.5,0.7,0.3,1.424905996884161,1.5368569255513091,1.075825258,0,#DIV/0!,0,#DIV/0!
600,30,0,6,130.5,134.4,125.9,0.3,0.4,0.6,87.5,6.3,52.7,4.0,0.5,0.2,1.0,1.7352332166305653,1.075825258,0,#DIV/0!,0,#DIV/0!
600,30,10,5,124.6,129.9,119.9,0.4,0.5,0.7,91.6,7.7,50.9,3.9,0.7,0.2,1.0,1.5799721880724786,1.075825258,0,#DIV/0!,0,#DIV/0!
600,30,15,4,132.2,139.7,129.9,0.6,0.6,0.7,106.0,7.0,54.8,4.3,0.7,0.2,1.0,1.5898290817219571,1.075825258,0,#DIV/0!,0,#DIV/0!
600,30,20,3,118.3,129.3,118.5,0.6,0.6,1.0,121.0,8.5,50.7,4.6,0.7,0.2,1.0,1.569391648954345,1.075825258,0,#DIV/0!,0,#DIV/0!
600,30,50,2,107.7,122.2,112.5,0.8,0.7,0.8,140.0,11.9,47.9,3.5,0.9,0.3,1.7782519151321945,1.3619468284488518,1.075825258,0,#DIV/0!,0,#DIV/0!
600,30,100,1,110.2,126.2,116.2,0.6,0.7,1.0,142.3,12.7,49.5,3.3,0.7,0.3,2.4849437516282595,1.5273227584988978,1.075825258,0,#DIV/0!,0,#DIV/0!
620,31,0,6,129.0,133.9,124.9,0.4,0.4,0.7,92.8,6.7,52.5,4.3,0.6,0.2,1.0,1.662359470248661,1.075825258,0,#DIV/0!,0,#DIV/0!
620,31,10,5,124.5,129.7,119.0,0.6,0.5,0.6,89.1,8.3,50.9,3.7,0.6,0.2,1.0,1.6453803129736853,1.075825258,0,#DIV/0!,0,#DIV/0!
620,31,15,4,133.9,140.3,130.0,0.6,0.6,0.8,96.9,7.3,55.0,4.2,0.7,0.2,1.0,1.5855380019950402,1.075825258,0,#DIV/0!,0,#DIV/0!
620,31,20,3,116.4,128.6,119.5,0.5,0.5,0.8,135.3,9.5,50.4,3.3,0.6,0.2,1.0,1.6347770857530093,1.075825258,0,#DIV/0!,0,#DIV/0!
620,31,50,2,106.5,121.6,111.1,0.8,0.8,0.8,138.1,12.4,47.7,3.3,0.9,0.3,2.2199343129422355,1.3538369007847169,1.075825258,0,#DIV/0!,0,#DIV/0!
620,31,100,1,108.6,126.0,116.8,0.6,0.7,0.9,148.2,13.8,49.4,2.9,0.7,0.3,3.4749365149411293,1.5205034880998096,1.075825258,0,#DIV/0!,0,#DIV/0!
640,32,0,6,128.9,133.4,126.0,0.3,0.5,0.8,96.4,5.5,52.3,5.1,0.7,0.2,1.0,1.6127145120632143,1.075825258,0,#DIV/0!,0,#DIV/0!
640,32,10,5,123.3,128.7,118.7,0.6,0.6,1.0,92.5,7.7,50.5,5.5,0.9,0.2,1.0,1.441016198722167,1.075825258,0,#DIV/0!,0,#DIV/0!
640,32,15,4,132.6,139.0,128.5,0.5,0.7,0.9,96.8,7.6,54.5,4.7,0.8,0.3,1.0,1.5115148933233338,1.075825258,0,#DIV/0!,0,#DIV/0!
640,32,20,3,114.7,128.2,117.5,0.5,0.6,0.7,132.2,10.5,50.3,2.8,0.6,0.2,1.0,1.6274346738842056,1.075825258,0,#DIV/0!,0,#DIV/0!
640,32,50,2,108.2,123.0,113.2,0.7,0.9,0.8,140.1,12.0,48.2,3.4,0.9,0.3,1.8665883946942023,1.3603001169384814,1.075825258,0,#DIV/0!,0,#DIV/0!
640,32,100,1,109.2,126.7,118.9,0.5,0.6,0.9,153.2,13.8,49.7,2.8,0.6,0.2,3.4749365149411293,1.613761649439051,1.075825258,0,#DIV/0!,0,#DIV/0!
660,33,0,6,128.3,135.1,125.9,0.4,0.4,0.6,104.6,6.8,53.0,3.5,0.6,0.2,1.0,1.661207837728424,1.075825258,0,#DIV/0!,0,#DIV/0!
660,33,10,5,123.5,129.4,121.0,0.5,0.5,0.7,101.7,6.5,50.7,4.3,0.6,0.2,1.0,1.6646976702165548,1.075825258,0,#DIV/0!,0,#DIV/0!
660,33,15,4,132.6,140.4,130.2,0.5,0.6,0.7,106.2,7.2,55.1,3.7,0.6,0.2,1.0,1.6567193553090513,1.075825258,0,#DIV/0!,0,#DIV/0!
660,33,20,3,114.4,129.7,120.4,0.5,0.4,0.6,143.4,11.9,50.9,2.4,0.5,0.2,1.7782519151321945,1.705921663486914,1.075825258,0,#DIV/0!,0,#DIV/0!
660,33,50,2,108.3,123.9,114.4,0.8,0.8,1.1,143.6,12.6,48.6,3.8,0.9,0.3,2.3966072720662517,1.3506807739542106,1.075825258,0,#DIV/0!,0,#DIV/0!
660,33,100,1,108.7,127.7,119.5,0.6,0.6,0.8,154.1,14.9,50.1,2.5,0.7,0.2,4.474395636331298,1.51562735043515,1.075825258,0,#DIV/0!,0,#DIV/0!
680,34,0,6,130.4,133.9,126.3,0.4,0.4,0.4,87.9,5.6,52.5,3.5,0.4,0.2,1.0,1.8091068159152994,1.075825258,0,#DIV/0!,0,#DIV/0!
680,34,10,5,123.3,131.0,119.4,0.4,0.5,0.8,99.4,8.9,51.4,3.5,0.7,0.2,1.0,1.56438638351057,1.075825258,0,#DIV/0!,0,#DIV/0!
680,34,15,4,132.9,141.5,130.6,0.5,0.5,0.6,107.5,7.7,55.5,3.1,0.6,0.2,1.0,1.6513795259963846,1.075825258,0,#DIV/0!,0,#DIV/0!
680,34,20,3,113.4,130.8,120.5,0.5,0.4,0.7,144.3,13.3,51.3,2.3,0.5,0.2,3.020636914309234,1.705931911871729,1.075825258,0,#DIV/0!,0,#DIV/0!
680,34,50,2,110.5,127.7,118.0,0.6,0.5,0.6,146.1,13.4,50.1,2.3,0.6,0.2,3.111496834435613,1.6145027950076876,1.075825258,0,#DIV/0!,0,#DIV/0!
680,34,100,1,106.7,127.7,119.6,0.5,0.5,0.8,156.9,16.4,50.1,2.1,0.5,0.2,5.871706505940324,1.717889311317599,1.075825258,0,#DIV/0!,0,#DIV/0!
700,35,0,6,129.0,134.0,126.5,0.3,0.4,0.4,100.1,5.6,52.6,3.0,0.4,0.2,1.0,1.8091068159152994,1.075825258,0,#DIV/0!,0,#DIV/0!
700,35,10,5,122.1,130.2,121.1,0.5,0.5,0.6,113.6,6.9,51.0,3.9,0.6,0.2,1.0,1.6600679413527049,1.075825258,0,#DIV/0!,0,#DIV/0!
700,35,15,4,132.1,140.5,131.3,0.5,0.5,0.7,114.7,6.6,55.1,3.7,0.6,0.2,1.0,1.6635227705009263,1.075825258,0,#DIV/0!,0,#DIV/0!
700,35,20,3,112.6,130.5,119.4,0.5,0.5,0.6,142.9,13.7,51.2,1.9,0.5,0.2,3.384076594814749,1.7065310828346067,1.075825258,0,#DIV/0!,0,#DIV/0!
700,35,50,2,109.0,128.3,116.7,0.7,0.6,0.6,144.0,15.0,50.3,2.2,0.7,0.2,4.565255556457677,1.5152839460518,1.075825258,0,#DIV/0!,0,#DIV/0!
700,35,100,1,105.8,126.7,119.4,0.5,0.6,0.8,159.2,16.5,49.7,2.1,0.6,0.2,5.965161951825248,1.6159434976390306,1.075825258,0,#DIV/0!,0,#DIV/0!
720,36,0,6,128.2,134.1,125.1,0.3,0.4,0.5,99.4,6.7,52.6,3.0,0.5,0.2,1.0,1.7317315920735001,1.075825258,0,#DIV/0!,0,#DIV/0!
720,36,10,5,121.8,129.5,118.3,0.6,0.5,0.8,101.2,8.6,50.8,3.8,0.7,0.2,1.0,1.5681221845771083,1.075825258,0,#DIV/0!,0,#DIV/0!
720,36,15,4,130.1,139.7,130.6,0.4,0.6,0.6,123.1,6.9,54.8,3.4,0.5,0.2,1.0,1.7300554592587978,1.075825258,0,#DIV/0!,0,#DIV/0!
720,36,20,3,110.5,129.3,120.3,0.5,0.4,0.6,151.3,14.5,50.7,1.9,0.5,0.2,4.110955955825782,1.708550148925164,1.075825258,0,#DIV/0!,0,#DIV/0!
720,36,50,2,107.4,127.4,117.5,0.6,0.6,0.7,150.4,15.7,50.0,2.2,0.7,0.3,5.217518384745864,1.5133596314937514,1.075825258,0,#DIV/0!,0,#DIV/0!
720,36,100,1,103.7,127.0,119.4,0.4,0.7,0.6,160.4,18.4,49.8,1.7,0.6,0.3,7.777718308569684,1.6254516986398655,1.075825258,0,#DIV/0!,0,#DIV/0!
740,37,0,6,129.2,134.2,125.3,0.3,0.3,0.6,93.2,6.6,52.6,3.5,0.5,0.1,1.0,1.7325884257484743,1.075825258,0,#DIV/0!,0,#DIV/0!
740,37,10,5,121.6,129.1,119.4,0.6,0.5,0.9,106.5,7.6,50.6,4.6,0.8,0.2,1.0,1.5115148933233338,1.075825258,0,#DIV/0!,0,#DIV/0!
740,37,15,4,130.7,139.3,131.0,0.4,0.7,0.7,122.4,6.2,54.6,4.1,0.6,0.3,1.0,1.6682912856784347,1.075825258,0,#DIV/0!,0,#DIV/0!
740,37,20,3,109.8,129.0,119.4,0.5,0.4,0.8,150.0,14.9,50.6,2.2,0.5,0.2,4.474395636331298,1.7099777844590596,1.075825258,0,#DIV/0!,0,#DIV/0!
740,37,50,2,106.4,126.6,119.0,0.7,0.6,0.7,157.5,15.9,49.6,2.5,0.7,0.2,5.404429276515711,1.5129661961544172,1.075825258,0,#DIV/0!,0,#DIV/0!
740,37,100,1,103.1,127.4,117.7,0.4,0.5,0.9,156.1,19.1,50.0,1.9,0.6,0.2,8.455887101209438,1.6307125451164441,1.075825258,0,#DIV/0!,0,#DIV/0!
760,38,0,6,127.4,134.3,125.6,0.4,0.3,0.4,107.3,6.5,52.7,2.6,0.4,0.1,1.0,1.8033333920846526,1.075825258,0,#DIV/0!,0,#DIV/0!
760,38,10,5,119.6,128.6,119.9,0.5,0.6,0.6,121.9,7.0,50.4,4.0,0.6,0.2,1.0,1.6589398496746965,1.075825258,0,#DIV/0!,0,#DIV/0!
760,38,15,4,130.0,138.8,129.8,0.4,0.6,0.8,118.5,6.5,54.4,4.1,0.7,0.2,1.0,1.59719744955391,1.075825258,0,#DIV/0!,0,#DIV/0!
760,38,20,3,108.1,128.7,118.7,0.6,0.4,0.7,150.9,16.0,50.5,2.0,0.6,0.1,5.4978847224006335,1.6145637242111652,1.075825258,0,#DIV/0!,0,#DIV/0!
760,38,50,2,104.7,126.6,117.6,0.6,0.6,0.8,155.5,17.3,49.6,2.2,0.6,0.2,6.720342032127674,1.6191123299501908,1.075825258,0,#DIV/0!,0,#DIV/0!
760,38,100,1,102.1,126.2,118.6,0.4,0.5,0.9,161.1,19.0,49.5,1.8,0.5,0.2,8.357016052591081,1.741613766373984,1.075825258,0,#DIV/0!,0,#DIV/0!
780,39,0,6,128.0,134.8,126.4,0.4,0.4,0.5,108.0,6.3,52.9,3.2,0.5,0.2,1.0,1.7352332166305653,1.075825258,0,#DIV/0!,0,#DIV/0!
780,39,10,5,120.0,128.8,118.4,0.4,0.6,0.8,110.9,8.1,50.5,3.8,0.8,0.2,1.0,1.5029995613906826,1.075825258,0,#DIV/0!,0,#DIV/0!
780,39,15,4,129.6,138.6,130.4,0.5,0.6,0.8,124.9,6.5,54.4,4.4,0.6,0.2,1.0,1.6646976702165548,1.075825258,0,#DIV/0!,0,#DIV/0!
780,39,20,3,107.2,128.9,117.6,0.5,0.5,0.7,148.8,16.9,50.6,1.8,0.5,0.2,6.338983735364939,1.7214467513669107,1.075825258,0,#DIV/0!,0,#DIV/0!
780,39,50,2,104.2,125.9,118.0,0.6,0.6,0.6,158.3,17.2,49.4,1.9,0.6,0.2,6.62421691608749,1.6186506698562384,1.075825258,0,#DIV/0!,0,#DIV/0!
780,39,100,1,102.1,126.6,118.2,0.3,0.6,1.0,159.5,19.4,49.6,1.9,0.5,0.2,8.752500247064503,1.7464375491409596,1.075825258,0,#DIV/0!,0,#DIV/0!
800,40,0,6,127.4,134.6,125.8,0.3,0.3,0.5,108.8,6.5,52.8,2.9,0.4,0.1,1.0,1.8033333920846526,1.075825258,0,#DIV/0!,0,#DIV/0!
800,40,10,5,119.3,129.6,118.6,0.4,0.5,0.7,115.9,8.5,50.8,2.9,0.6,0.2,1.0,1.6434820468900135,1.075825258,0,#DIV/0!,0,#DIV/0!
800,40,15,4,129.0,139.6,131.8,0.4,0.6,0.7,135.6,7.6,54.7,3.2,0.5,0.2,1.0,1.7245899492626413,1.075825258,0,#DIV/0!,0,#DIV/0!
800,40,20,3,106.1,129.1,120.9,0.5,0.3,0.5,158.6,17.8,50.6,1.6,0.5,0.1,7.200967612328588,1.7290430173701379,1.075825258,0,#DIV/0!,0,#DIV/0!
800,40,50,2,101.9,123.3,115.0,0.5,0.4,0.7,156.6,17.4,48.4,1.9,0.5,0.2,6.816467148167855,1.725475786307989,1.075825258,0,#DIV/0!,0,#DIV/0!
800,40,100,1,101.4,125.5,120.7,0.4,0.5,0.9,168.0,19.2,49.2,2.1,0.5,0.2,8.554758149827792,1.7439856146492547,1.075825258,0,#DIV/0!,0,#DIV/0!
820,41,0,6,127.0,133.9,125.7,0.4,0.5,0.5,110.5,6.2,52.5,3.4,0.5,0.2,1.0,1.7361393608929065,1.075825258,0,#DIV/0!,0,#DIV/0!
820,41,10,5,118.3,128.3,118.0,0.7,0.7,0.8,118.4,8.0,50.3,4.4,0.9,0.3,1.0,1.4347925149796843,1.075825258,0,#DIV/0!,0,#DIV/0!
820,41,15,4,127.9,138.3,128.6,0.6,0.7,1.0,124.3,7.6,54.3,4.8,0.7,0.3,1.0,1.5813467498078297,1.075825258,0,#DIV/0!,0,#DIV/0!
820,41,20,3,105.7,127.1,120.4,0.5,0.4,0.8,161.1,16.8,49.8,2.1,0.5,0.2,6.245528289480019,1.720697750721623,1.075825258,0,#DIV/0!,0,#DIV/0!
820,41,50,2,100.0,122.0,112.9,0.5,0.7,0.9,155.1,18.0,47.8,2.2,0.7,0.3,7.393217844408953,1.5132067650153287,1.075825258,0,#DIV/0!,0,#DIV/0!
820,41,100,1,99.8,124.6,118.8,0.5,0.6,1.0,165.9,19.9,48.8,2.1,0.6,0.2,9.246855490156285,1.6379218687235944,1.075825258,0,#DIV/0!,0,#DIV/0!
840,42,0,6,126.3,134.2,126.3,0.4,0.4,0.4,119.6,5.9,52.6,2.8,0.4,0.2,1.0,1.8070677210160537,1.075825258,0,#DIV/0!,0,#DIV/0!
840,42,10,5,118.5,129.2,118.1,0.3,0.5,0.7,117.9,8.6,50.7,2.9,0.7,0.2,1.0,1.5681221845771083,1.075825258,0,#DIV/0!,0,#DIV/0!
840,42,15,4,127.0,139.0,130.1,0.5,0.5,0.6,135.2,8.6,54.5,2.8,0.5,0.2,1.0,1.717899249036427,1.075825258,0,#DIV/0!,0,#DIV/0!
840,42,20,3,104.1,128.3,119.4,0.5,0.3,0.7,158.0,18.8,50.3,1.6,0.5,0.1,8.162218772730418,1.7393216270255643,1.075825258,0,#DIV/0!,0,#DIV/0!
840,42,50,2,99.3,121.7,114.5,0.5,0.9,0.8,160.7,18.4,47.7,2.3,0.9,0.4,7.777718308569684,1.2846341235708358,1.075825258,0,#DIV/0!,0,#DIV/0!
840,42,100,1,99.1,124.9,118.4,0.5,0.6,0.9,164.7,20.7,49.0,1.8,0.6,0.2,10.037823879103135,1.6464334117120403,1.075825258,0,#DIV/0!,0,#DIV/0!
860,43,0,6,125.9,134.9,125.5,0.3,0.4,0.6,117.3,7.0,52.9,3.0,0.5,0.2,1.0,1.7292362902488194,1.075825258,0,#DIV/0!,0,#DIV/0!
860,43,10,5,116.5,129.1,119.0,0.4,0.5,0.6,131.8,9.8,50.6,2.5,0.5,0.2,1.0,1.7116891444461906,1.075825258,0,#DIV/0!,0,#DIV/0!
860,43,15,4,126.5,138.8,129.3,0.5,0.4,0.7,133.4,8.8,54.4,3.0,0.5,0.2,1.0,1.716723817032505,1.075825258,0,#DIV/0!,0,#DIV/0!
860,43,20,3,101.5,127.7,119.8,0.5,0.3,0.6,161.9,20.5,50.1,1.4,0.5,0.1,9.840081781866424,1.7613711234224858,1.075825258,0,#DIV/0!,0,#DIV/0!
860,43,50,2,98.7,122.9,113.8,0.5,0.7,0.9,157.5,19.7,48.2,2.1,0.8,0.3,9.049113392919573,1.4003669135506345,1.075825258,0,#DIV/0!,0,#DIV/0!
860,43,100,1,97.7,124.7,120.6,0.7,0.6,1.0,170.9,21.7,48.9,2.3,0.8,0.2,11.053526648902663,1.4064215151949837,1.075825258,0,#DIV/0!,0,#DIV/0!
880,44,0,6,125.2,133.7,125.3,0.4,0.5,0.4,121.2,6.4,52.4,2.9,0.4,0.2,1.0,1.8039235333416745,1.075825258,0,#DIV/0!,0,#DIV/0!
880,44,10,5,116.0,127.0,117.1,0.5,0.7,0.8,126.3,8.7,49.8,3.5,0.7,0.3,1.0,1.5668647689197335,1.075825258,0,#DIV/0!,0,#DIV/0!
880,44,15,4,124.2,137.5,127.3,0.6,0.7,1.0,134.1,9.7,53.9,3.7,0.7,0.3,1.0,1.5549698476275828,1.075825258,0,#DIV/0!,0,#DIV/0!
880,44,20,3,100.8,126.6,118.1,0.6,0.5,0.6,160.3,20.4,49.7,1.6,0.6,0.2,9.741210733248066,1.6430873517792726,1.075825258,0,#DIV/0!,0,#DIV/0!
880,44,50,2,98.7,124.7,115.8,0.4,0.5,0.7,159.5,20.8,48.9,1.6,0.5,0.2,10.138267849555522,1.7658741650079048,1.075825258,0,#DIV/0!,0,#DIV/0!
880,44,100,1,97.1,124.0,117.0,0.5,0.4,1.0,164.4,21.7,48.6,1.9,0.6,0.2,11.053526648902663,1.6589421708867826,1.075825258,0,#DIV/0!,0,#DIV/0!
920,45,0,6,125.1,133.8,124.5,0.4,0.4,0.5,116.5,6.9,52.5,2.9,0.5,0.2,1.0,1.7300554592587978,1.075825258,0,#DIV/0!,0,#DIV/0!
920,45,10,5,117.4,127.6,119.1,0.4,0.6,0.6,129.9,8.0,50.1,2.9,0.6,0.2,1.0,1.6483233670971515,1.075825258,0,#DIV/0!,0,#DIV/0!
920,45,15,4,124.7,138.7,130.0,0.5,0.4,0.7,142.6,10.1,54.4,2.6,0.5,0.2,1.0,1.7104589624976485,1.075825258,0,#DIV/0!,0,#DIV/0!
920,45,20,3,99.4,127.0,119.4,0.4,0.3,0.7,163.6,21.7,49.8,1.3,0.3,0.1,11.053526648902663,2.017078701432858,1.075825258,0,#DIV/0!,0,#DIV/0!
920,45,50,2,97.9,123.9,116.2,0.5,0.6,0.7,162.2,20.9,48.6,1.7,0.6,0.2,10.239963271705202,1.648767745047063,1.075825258,0,#DIV/0!,0,#DIV/0!
920,45,100,1,96.6,123.1,117.5,0.6,0.5,1.1,167.3,21.5,48.3,2.3,0.6,0.2,10.8501358046033,1.6562722718862712,1.075825258,0,#DIV/0!,0,#DIV/0!
960,46,0,6,123.8,133.0,125.1,0.5,0.5,0.7,128.9,7.0,52.2,3.8,0.5,0.2,1.0,1.7292362902488194,1.075825258,0,#DIV/0!,0,#DIV/0!
960,46,10,5,114.6,128.0,118.8,0.5,0.7,0.9,139.0,10.5,50.2,3.4,0.7,0.3,1.0,1.546377737336717,1.075825258,0,#DIV/0!,0,#DIV/0!
960,46,15,4,123.1,137.6,127.9,0.5,0.7,1.0,139.7,10.5,54.0,3.3,0.6,0.3,1.0,1.6274346738842056,1.075825258,0,#DIV/0!,0,#DIV/0!
960,46,20,3,98.0,125.1,116.1,0.6,0.4,0.7,160.2,21.7,49.0,1.6,0.6,0.2,11.053526648902663,1.6589421708867826,1.075825258,0,#DIV/0!,0,#DIV/0!
960,46,50,2,97.3,124.4,115.1,0.5,0.5,0.6,159.5,21.7,48.8,1.5,0.6,0.2,11.053526648902663,1.6589421708867826,1.075825258,0,#DIV/0!,0,#DIV/0!
960,46,100,1,95.0,123.6,117.4,0.7,0.4,1.1,167.1,23.1,48.5,2.1,0.7,0.2,12.493811074895834,1.5500171644407894,1.075825258,0,#DIV/0!,0,#DIV/0!
980,47,0,6,122.9,132.8,124.4,0.4,0.4,0.5,128.9,7.4,52.1,2.6,0.4,0.2,1.0,1.7986163650516318,1.075825258,0,#DIV/0!,0,#DIV/0!
980,47,10,5,114.2,128.0,116.9,0.3,0.5,0.7,131.8,10.8,50.2,2.5,0.5,0.2,1.0,1.7081068025945436,1.075825258,0,#DIV/0!,0,#DIV/0!
980,47,15,4,122.3,138.2,129.7,0.5,0.4,0.7,148.0,11.5,54.2,2.3,0.5,0.2,1.424905996884161,1.7064983302007042,1.075825258,0,#DIV/0!,0,#DIV/0!
980,47,20,3,97.0,126.3,118.2,0.5,0.4,0.6,163.6,23.2,49.5,1.3,0.5,0.2,12.598411552292628,1.808706760607514,1.075825258,0,#DIV/0!,0,#DIV/0!
980,47,50,2,97.0,124.8,116.7,0.5,0.6,0.8,162.5,22.2,48.9,1.6,0.6,0.2,11.562003759651077,1.6659886150255763,1.075825258,0,#DIV/0!,0,#DIV/0!
980,47,100,1,93.7,123.2,118.0,0.6,0.5,0.9,169.4,23.9,48.3,1.7,0.6,0.2,13.330614894070207,1.693980033775522,1.075825258,0,#DIV/0!,0,#DIV/0!
1000,48,0,6,122.3,133.0,125.3,0.4,0.4,0.5,136.6,8.0,52.1,2.8,0.4,0.2,1.0,1.7960806673058272,1.075825258,0,#DIV/0!,0,#DIV/0!
1000,48,10,5,114.3,126.9,116.5,0.4,0.6,0.7,130.7,9.9,49.8,2.7,0.6,0.2,1.0,1.6316726388697838,1.075825258,0,#DIV/0!,0,#DIV/0!
1000,48,15,4,122.4,136.9,128.6,0.5,0.5,0.7,145.6,10.6,53.7,2.6,0.5,0.2,1.0,1.7087039385330092,1.075825258,0,#DIV/0!,0,#DIV/0!
1000,48,20,3,95.0,125.1,118.8,0.6,0.4,0.9,167.5,24.0,49.0,1.7,0.6,0.2,13.435215371467006,1.6958233967232852,1.075825258,0,#DIV/0!,0,#DIV/0!
1000,48,50,2,95.8,124.1,115.2,0.5,0.6,0.6,161.2,22.8,48.7,1.4,0.6,0.2,12.180009642705441,1.6751513047893292,1.075825258,0,#DIV/0!,0,#DIV/0!
1000,48,100,1,93.5,122.4,115.6,0.7,0.4,0.7,165.9,23.6,48.0,1.8,0.7,0.2,13.016813461879819,1.5565963651005734,1.075825258,0,#DIV/0!,0,#DIV/0!
1020,49,0,6,122.6,133.2,124.9,0.4,0.4,0.6,133.1,8.0,52.3,2.8,0.4,0.2,1.0,1.7960806673058272,1.075825258,0,#DIV/0!,0,#DIV/0!
1020,49,10,5,114.0,127.5,118.5,0.3,0.5,0.7,140.0,10.6,50.0,2.5,0.5,0.2,1.0,1.7087039385330092,1.075825258,0,#DIV/0!,0,#DIV/0!
1020,49,15,4,121.1,136.5,128.7,0.4,0.5,0.6,149.6,11.3,53.5,2.3,0.5,0.2,1.2482330377601452,1.7068807076727714,1.075825258,0,#DIV/0!,0,#DIV/0!
1020,49,20,3,95.6,125.5,118.0,0.7,0.5,0.6,164.8,23.9,49.2,1.6,0.7,0.2,13.330614894070207,1.5608099451471336,1.075825258,0,#DIV/0!,0,#DIV/0!
1020,49,50,2,93.9,123.9,115.5,0.4,0.5,0.7,163.2,24.2,48.6,1.4,0.6,0.2,13.644416326260599,1.699576457766397,1.075825258,0,#DIV/0!,0,#DIV/0!
1020,49,100,1,92.0,122.4,116.1,0.7,0.4,0.9,167.6,24.8,48.0,1.8,0.6,0.2,14.28795153575318,1.7113687951195289,1.075825258,0,#DIV/0!,0,#DIV/0!
1040,50,0,6,120.4,131.8,124.2,0.4,0.4,0.5,140.0,8.7,51.7,2.5,0.4,0.1,1.0,1.7937586047546281,1.075825258,0,#DIV/0!,0,#DIV/0!
1040,50,10,5,114.3,126.9,116.3,0.4,0.5,0.8,129.6,9.9,49.7,3.0,0.5,0.2,1.0,1.7112644727023485,1.075825258,0,#DIV/0!,0,#DIV/0!
1040,50,15,4,120.2,134.2,127.2,0.5,0.5,0.6,149.7,10.4,52.6,2.7,0.5,0.2,1.0,1.7093612635090467,1.075825258,0,#DIV/0!,0,#DIV/0!
1040,50,20,3,94.7,126.2,116.1,0.6,0.4,0.9,160.8,24.9,49.5,1.5,0.6,0.2,14.39554005488567,1.7134122882948806,1.075825258,0,#DIV/0!,0,#DIV/0!
1040,50,50,2,93.7,124.1,116.5,0.6,0.6,0.7,164.9,24.5,48.7,1.5,0.7,0.2,13.965185978355706,1.5698408494266005,1.075825258,0,#DIV/0!,0,#DIV/0!
1040,50,100,1,91.6,123.1,115.8,0.7,0.4,0.9,166.0,25.6,48.3,1.7,0.6,0.2,15.148659688813112,1.7283457828132023,1.075825258,0,#DIV/0!,0,#DIV/0!
1060,51,0,6,121.0,132.9,124.9,0.4,0.4,0.5,139.8,9.0,52.1,2.3,0.4,0.2,1.0,1.792978095270225,1.075825258,0,#DIV/0!,0,#DIV/0!
1060,51,10,5,113.2,127.0,117.7,0.3,0.6,0.7,139.8,10.9,49.8,2.5,0.6,0.2,1.0,1.6248951411575558,1.075825258,0,#DIV/0!,0,#DIV/0!
1060,51,15,4,119.8,136.2,128.0,0.5,0.5,0.7,150.0,12.0,53.4,2.3,0.5,0.2,1.8665883946942023,1.7058170567890965,1.075825258,0,#DIV/0!,0,#DIV/0!
1060,51,20,3,94.1,123.6,117.7,0.5,0.3,0.8,168.1,23.9,48.5,1.5,0.5,0.1,13.330614894070207,1.8235265079182497,1.075825258,0,#DIV/0!,0,#DIV/0!
1060,51,50,2,93.1,122.8,115.8,0.5,0.5,0.6,165.9,24.1,48.1,1.4,0.6,0.2,13.539815848863803,1.6976888597412623,1.075825258,0,#DIV/0!,0,#DIV/0!
1060,51,100,1,92.0,122.7,116.4,0.6,0.5,0.9,167.7,25.0,48.1,1.8,0.7,0.2,14.503128574018163,1.577986436503623,1.075825258,0,#DIV/0!,0,#DIV/0!
1080,52,0,6,119.7,132.8,124.1,0.4,0.4,0.5,140.4,9.9,52.1,2.3,0.5,0.2,1.0,1.7112644727023485,1.075825258,0,#DIV/0!,0,#DIV/0!
1080,52,10,5,112.1,126.6,116.4,0.5,0.6,0.9,137.8,11.5,49.7,3.0,0.6,0.2,1.424905996884161,1.6215258888969748,1.075825258,0,#DIV/0!,0,#DIV/0!
1080,52,15,4,119.5,135.8,125.9,0.5,0.5,0.8,143.7,12.0,53.2,2.6,0.5,0.2,1.8665883946942023,1.7058170567890965,1.075825258,0,#DIV/0!,0,#DIV/0!
1080,52,20,3,92.5,123.7,117.1,0.8,0.4,0.9,167.2,25.2,48.5,1.8,0.7,0.1,14.718305612283144,1.5814035496800793,1.075825258,0,#DIV/0!,0,#DIV/0!
1080,52,50,2,92.3,123.1,113.9,0.4,0.5,0.7,162.0,25.0,48.3,1.3,0.6,0.2,14.503128574018163,1.7154781840201425,1.075825258,0,#DIV/0!,0,#DIV/0!
1080,52,100,1,91.6,122.6,115.6,0.7,0.5,1.0,166.5,25.3,48.1,1.9,0.7,0.2,14.825894131415637,1.5831462904859455,1.075825258,0,#DIV/0!,0,#DIV/0!
