EESchema Schematic File Version 4
EELAYER 30 0
EELAYER END
$Descr A4 11693 8268
encoding utf-8
Sheet 1 1
Title ""
Date ""
Rev ""
Comp ""
Comment1 ""
Comment2 ""
Comment3 ""
Comment4 ""
$EndDescr
$Comp
L Connector:Conn_01x03_Male J1
U 1 1 602E1C5A
P 1195 2100
F 0 "J1" H 1303 2381 50  0000 C CNN
F 1 "Conn_01x03_Male" H 865 2320 50  0000 C CNN
F 2 "Connector_PinSocket_2.54mm:PinSocket_1x03_P2.54mm_Vertical" H 1195 2100 50  0001 C CNN
F 3 "~" H 1195 2100 50  0001 C CNN
	1    1195 2100
	1    0    0    -1  
$EndComp
$Comp
L power:GND #PWR01
U 1 1 602EB5B4
P 1405 2870
F 0 "#PWR01" H 1405 2620 50  0001 C CNN
F 1 "GND" H 1410 2697 50  0000 C CNN
F 2 "" H 1405 2870 50  0001 C CNN
F 3 "" H 1405 2870 50  0001 C CNN
	1    1405 2870
	1    0    0    -1  
$EndComp
Text GLabel 1665 2100 2    50   Input ~ 0
Data
$Comp
L power:+5V #PWR02
U 1 1 602EC681
P 1665 2000
F 0 "#PWR02" H 1665 1850 50  0001 C CNN
F 1 "+5V" H 1680 2173 50  0000 C CNN
F 2 "" H 1665 2000 50  0001 C CNN
F 3 "" H 1665 2000 50  0001 C CNN
	1    1665 2000
	1    0    0    -1  
$EndComp
Wire Wire Line
	1395 2870 1405 2870
Wire Wire Line
	1395 2200 1395 2870
Connection ~ 1405 2870
Wire Wire Line
	4170 2870 4170 2605
Wire Wire Line
	5650 2870 5645 2870
Connection ~ 4170 2870
Wire Wire Line
	2885 2010 2885 2000
Wire Wire Line
	4170 2005 4170 2000
Wire Wire Line
	5645 2040 5645 2000
Wire Wire Line
	3185 2310 3870 2310
Wire Wire Line
	3870 2310 3870 2305
Wire Wire Line
	4470 2305 5345 2305
Wire Wire Line
	5345 2305 5345 2340
Wire Wire Line
	2585 2310 1665 2310
Wire Wire Line
	7165 2900 7165 2640
Wire Wire Line
	7165 2900 8450 2900
Wire Wire Line
	8450 2900 8450 2635
Connection ~ 7165 2900
Wire Wire Line
	7165 2040 7165 2030
Wire Wire Line
	8450 2035 8450 2030
Wire Wire Line
	9925 2070 9925 2030
Wire Wire Line
	7465 2340 8150 2340
Wire Wire Line
	8150 2340 8150 2335
Wire Wire Line
	8750 2335 9625 2335
Wire Wire Line
	9625 2335 9625 2370
Wire Wire Line
	6865 2340 5945 2340
Wire Wire Line
	5650 2900 5650 2870
Wire Wire Line
	5650 2900 7165 2900
Wire Wire Line
	5725 2030 5725 2000
Wire Wire Line
	5725 2000 5645 2000
Connection ~ 5645 2000
Wire Wire Line
	5645 2640 5645 2870
Connection ~ 5645 2870
Wire Wire Line
	5645 2870 4170 2870
Wire Wire Line
	1405 2870 2885 2870
Wire Wire Line
	2885 2610 2885 2870
Connection ~ 2885 2870
Wire Wire Line
	2885 2870 4170 2870
Wire Wire Line
	1665 2045 1500 2045
Wire Wire Line
	1500 2045 1500 2000
Wire Wire Line
	1500 2000 1395 2000
Wire Wire Line
	1665 2045 1665 2310
Wire Wire Line
	1395 2100 1570 2100
Wire Wire Line
	1570 2100 1570 2000
Wire Wire Line
	1570 2000 1665 2000
Connection ~ 1665 2000
$Comp
L LED:WS2812B PD1
U 1 1 608B4605
P 2885 2310
F 0 "PD1" H 3229 2356 50  0000 L CNN
F 1 "WS2812B" H 3229 2265 50  0000 L CNN
F 2 "LED_SMD:LED_WS2812B_PLCC4_5.0x5.0mm_P3.2mm" H 2935 2010 50  0001 L TNN
F 3 "https://cdn-shop.adafruit.com/datasheets/WS2812B.pdf" H 2985 1935 50  0001 L TNN
F 4 "WS2812B" H 2885 2310 50  0001 C CNN "MPN"
	1    2885 2310
	1    0    0    -1  
$EndComp
$Comp
L LED:WS2812B PD2
U 1 1 608B5792
P 4170 2305
F 0 "PD2" H 4514 2351 50  0000 L CNN
F 1 "WS2812B" H 4514 2260 50  0000 L CNN
F 2 "LED_SMD:LED_WS2812B_PLCC4_5.0x5.0mm_P3.2mm" H 4220 2005 50  0001 L TNN
F 3 "https://cdn-shop.adafruit.com/datasheets/WS2812B.pdf" H 4270 1930 50  0001 L TNN
F 4 "WS2812B" H 4170 2305 50  0001 C CNN "MPN"
	1    4170 2305
	1    0    0    -1  
$EndComp
Wire Wire Line
	1665 2000 2885 2000
Wire Wire Line
	5725 2030 7165 2030
$Comp
L LED:WS2812B PD3
U 1 1 608B6612
P 5645 2340
F 0 "PD3" H 5989 2386 50  0000 L CNN
F 1 "WS2812B" H 5989 2295 50  0000 L CNN
F 2 "LED_SMD:LED_WS2812B_PLCC4_5.0x5.0mm_P3.2mm" H 5695 2040 50  0001 L TNN
F 3 "https://cdn-shop.adafruit.com/datasheets/WS2812B.pdf" H 5745 1965 50  0001 L TNN
F 4 "WS2812B" H 5645 2340 50  0001 C CNN "MPN"
	1    5645 2340
	1    0    0    -1  
$EndComp
$Comp
L LED:WS2812B PD4
U 1 1 608B6F33
P 7165 2340
F 0 "PD4" H 7509 2386 50  0000 L CNN
F 1 "WS2812B" H 7509 2295 50  0000 L CNN
F 2 "LED_SMD:LED_WS2812B_PLCC4_5.0x5.0mm_P3.2mm" H 7215 2040 50  0001 L TNN
F 3 "https://cdn-shop.adafruit.com/datasheets/WS2812B.pdf" H 7265 1965 50  0001 L TNN
F 4 "WS2812B" H 7165 2340 50  0001 C CNN "MPN"
	1    7165 2340
	1    0    0    -1  
$EndComp
$Comp
L LED:WS2812B PD5
U 1 1 608B7E73
P 8450 2335
F 0 "PD5" H 8794 2381 50  0000 L CNN
F 1 "WS2812B" H 8794 2290 50  0000 L CNN
F 2 "LED_SMD:LED_WS2812B_PLCC4_5.0x5.0mm_P3.2mm" H 8500 2035 50  0001 L TNN
F 3 "https://cdn-shop.adafruit.com/datasheets/WS2812B.pdf" H 8550 1960 50  0001 L TNN
F 4 "WS2812B" H 8450 2335 50  0001 C CNN "MPN"
	1    8450 2335
	1    0    0    -1  
$EndComp
$Comp
L LED:WS2812B PD6
U 1 1 608B8FB9
P 9925 2370
F 0 "PD6" H 10269 2416 50  0000 L CNN
F 1 "WS2812B" H 10269 2325 50  0000 L CNN
F 2 "LED_SMD:LED_WS2812B_PLCC4_5.0x5.0mm_P3.2mm" H 9975 2070 50  0001 L TNN
F 3 "https://cdn-shop.adafruit.com/datasheets/WS2812B.pdf" H 10025 1995 50  0001 L TNN
F 4 "WS2812B" H 9925 2370 50  0001 C CNN "MPN"
	1    9925 2370
	1    0    0    -1  
$EndComp
NoConn ~ 10225 2370
Wire Wire Line
	9925 2900 8450 2900
Wire Wire Line
	9925 2670 9925 2900
Connection ~ 8450 2900
Connection ~ 7165 2030
Wire Wire Line
	7165 2030 8450 2030
Connection ~ 4170 2000
Wire Wire Line
	4170 2000 5645 2000
Connection ~ 2885 2000
Wire Wire Line
	2885 2000 4170 2000
Connection ~ 8450 2030
Wire Wire Line
	8450 2030 9925 2030
$EndSCHEMATC
