G04 #@! TF.GenerationSoftware,KiCad,Pcbnew,5.1.5+dfsg1-2build2*
G04 #@! TF.CreationDate,2021-03-05T16:10:23-03:00*
G04 #@! TF.ProjectId,led3_ring,6c656433-5f72-4696-9e67-2e6b69636164,rev?*
G04 #@! TF.SameCoordinates,Original*
G04 #@! TF.FileFunction,Copper,L1,Top*
G04 #@! TF.FilePolarity,Positive*
%FSLAX46Y46*%
G04 Gerber Fmt 4.6, Leading zero omitted, Abs format (unit mm)*
G04 Created by KiCad (PCBNEW 5.1.5+dfsg1-2build2) date 2021-03-05 16:10:23*
%MOMM*%
%LPD*%
G04 APERTURE LIST*
%ADD10O,1.070000X1.800000*%
%ADD11R,1.070000X1.800000*%
%ADD12C,0.100000*%
%ADD13C,1.070000*%
%ADD14R,1.700000X1.700000*%
%ADD15O,1.700000X1.700000*%
G04 APERTURE END LIST*
D10*
X48090000Y-84700000D03*
X49360000Y-84700000D03*
X50630000Y-84700000D03*
D11*
X51900000Y-84700000D03*
X47900000Y-115000000D03*
D10*
X49170000Y-115000000D03*
X50440000Y-115000000D03*
X51710000Y-115000000D03*
G04 #@! TA.AperFunction,ComponentPad*
D12*
G36*
X64572542Y-92962351D02*
G01*
X63098069Y-93994788D01*
X62484342Y-93118295D01*
X63958815Y-92085858D01*
X64572542Y-92962351D01*
G37*
G04 #@! TD.AperFunction*
D13*
X62501010Y-92209355D02*
X63098990Y-91790645D01*
X61772568Y-91169032D02*
X62370548Y-90750322D01*
X61044126Y-90128709D02*
X61642106Y-89709999D01*
G04 #@! TA.AperFunction,ComponentPad*
D12*
G36*
X39037957Y-89289251D02*
G01*
X40310749Y-90562043D01*
X39554145Y-91318647D01*
X38281353Y-90045855D01*
X39037957Y-89289251D01*
G37*
G04 #@! TD.AperFunction*
D13*
X38656119Y-91460069D02*
X38139931Y-90943881D01*
X37758094Y-92358094D02*
X37241906Y-91841906D01*
X36860068Y-93256120D02*
X36343880Y-92739932D01*
D14*
X34500000Y-97500000D03*
D15*
X34500000Y-100040000D03*
X34500000Y-102580000D03*
D13*
X62435983Y-107547829D02*
X62952171Y-108064017D01*
X61537957Y-108445855D02*
X62054145Y-108962043D01*
X60639932Y-109343880D02*
X61156120Y-109860068D01*
G04 #@! TA.AperFunction,ComponentPad*
D12*
G36*
X60258094Y-111514698D02*
G01*
X58985302Y-110241906D01*
X59741906Y-109485302D01*
X61014698Y-110758094D01*
X60258094Y-111514698D01*
G37*
G04 #@! TD.AperFunction*
D13*
X40228627Y-110984012D02*
X39669415Y-111453246D01*
X39412287Y-110011136D02*
X38853075Y-110480370D01*
X38595946Y-109038259D02*
X38036734Y-109507493D01*
G04 #@! TA.AperFunction,ComponentPad*
D12*
G36*
X36466669Y-108468675D02*
G01*
X37845549Y-107311657D01*
X38533331Y-108131325D01*
X37154451Y-109288343D01*
X36466669Y-108468675D01*
G37*
G04 #@! TD.AperFunction*
M02*
